<svg width="970" height="910" viewBox="0 0 970 910" fill="none" xmlns="http://www.w3.org/2000/svg">
<path d="M449.92 14.563C459.945 7.263 474.72 6.976 484.782 14.376C490.32 18.376 494.595 23.863 498.232 29.601L563.407 134.376C567.045 140.151 571.695 145.188 576.282 150.201C562.82 164.988 552.732 182.713 546.332 201.651C538.295 192.688 532.607 181.926 526.282 171.763C524.407 147.076 521.37 122.201 513.445 98.601C507.695 81.189 499.757 64.151 487.732 50.151C485.382 47.289 482.52 44.926 479.532 42.789C469.845 50.401 463.095 60.977 457.257 71.664C448.32 88.739 442.582 107.339 438.882 126.189C438.445 128.464 437.295 130.477 436.295 132.527C432.345 130.014 428.695 127.002 424.47 124.939L390.495 107.977L431.682 38.764C436.945 30.164 441.582 20.676 449.92 14.564V14.563ZM450.02 117.601C455.595 95.101 464.195 72.638 479.57 54.926C488.195 63.876 494.095 75.039 499.132 86.313C511.907 116.238 516.37 149.026 517.332 181.338L517.382 296.276C507.895 286.913 496.557 279.638 484.457 274.151L484.432 109.588L475.295 109.551L475.307 270.063C464.407 265.476 453.232 261.588 441.995 257.963L442.057 187.401C442.17 163.951 444.545 140.426 450.02 117.601V117.601ZM370.707 141.388C376.032 131.501 382.17 122.088 387.632 112.288C387.057 118.876 386.557 125.476 386.382 132.101C388.07 150.576 393.595 168.851 402.832 185.038C403.42 186.288 404.72 187.701 403.62 189.101C397.295 200.676 391.382 213.001 381.145 221.726C371.032 230.226 358.745 236.513 345.57 238.388C340.157 239.263 334.67 239.551 329.195 239.576L208.02 239.563C203.77 239.651 198.957 240.726 196.232 244.288C193.645 247.763 194.632 252.551 196.845 255.963L260.745 361.876C266.757 371.776 272.845 382.001 275.07 393.526C278.157 409.888 275.782 427.426 267.407 441.926L210.07 541.926C207.932 545.588 207.195 550.638 209.932 554.188C212.382 557.288 216.607 558.113 220.37 558.113L320.37 558.101C327.457 558.101 334.595 558.076 341.595 559.313C351.945 560.913 361.407 565.701 370.52 570.626C379.495 575.588 388.332 581.163 395.345 588.763C402.482 596.488 407.72 605.676 413.445 614.438L436.732 651.026L418.932 662.476L435.482 699.763C436.52 701.726 436.345 703.951 436.457 706.113C427.195 710.288 422.045 721.213 424.695 731.013L382.157 659.313C377.245 650.838 372.057 642.313 364.845 635.551C351.595 623.026 333.595 616.151 315.42 615.813L217.895 615.701C198.332 615.451 178.282 617.238 159.32 611.226C150.795 608.463 141.282 604.426 137.495 595.638C131.207 582.088 134.645 566.113 141.557 553.488L199.195 453.713C205.282 443.451 210.282 432.488 213.445 420.976C215.82 412.526 216.07 403.476 213.82 394.976C210.032 379.313 201.945 365.238 193.982 351.401L130.945 239.788C126.832 232.126 122.42 223.876 123.195 214.876C124.47 204.313 131.645 194.301 141.782 190.613C146.132 189.013 150.77 188.238 155.407 188.263L296.707 188.288C304.245 188.213 311.845 187.588 319.095 185.451C330.582 182.201 340.82 175.638 350.07 168.251C359.007 161.088 365.307 151.338 370.707 141.388V141.388ZM395.795 120.788C403.382 124.426 410.795 128.413 418.382 132.063C424.795 135.076 430.257 139.638 435.932 143.788C434.67 153.426 433.882 163.113 433.382 172.813C421.895 158.038 409.02 144.413 395.695 131.288L395.795 120.788ZM397.482 146.001C406.295 154.901 414.782 164.151 422.607 173.938C426.62 179.213 430.982 184.588 432.77 191.088C433.57 198.113 432.545 205.188 432.307 212.238C425.945 203.413 419.845 194.401 413.657 185.463C405.932 173.426 400.77 159.876 397.482 146.001V146.001ZM553.52 208.826C559.907 188.476 570.332 169.051 585.532 153.913C586.482 156.813 587.92 159.613 588.295 162.676C585.957 164.926 581.945 162.538 578.982 162.776L572.595 213.613C570.082 230.426 568.232 247.651 561.557 263.451C556.407 274.851 550.395 285.838 545.032 297.138C540.77 289.338 533.67 283.851 526.92 278.363C525.932 274.651 526.795 270.488 526.432 266.613C530.645 272.201 534.595 277.976 538.645 283.663C541.32 282.801 543.957 281.826 546.595 280.876C545.02 256.713 546.132 232.051 553.52 208.826V208.826ZM587.382 168.788C587.457 168.063 587.607 163.688 589.395 165.563C595.87 188.126 596.12 212.413 590.57 235.188C582.77 255.801 573.482 276.026 561.207 294.388C558.357 299.151 553.382 302.888 552.595 308.676C551.957 315.426 553.595 322.113 555.332 328.601C558.62 340.276 562.807 351.688 567.707 362.788C572.182 362.501 577.032 364.376 578.907 368.713C579.757 372.613 574.545 373.663 571.995 375.263L571.807 371.713C557.332 370.001 545.557 360.876 534.207 352.513C514.02 339.351 495.62 323.713 477.782 307.563C466.207 297.163 455.07 286.238 445.045 274.326C442.895 271.676 440.895 268.813 437.945 266.976C436.082 268.438 434.157 269.813 432.17 271.088C430.882 268.513 429.67 265.926 428.432 263.326C431.795 264.376 435.207 265.301 438.432 266.713L441.395 266.238L440.307 267.138C450.445 270.076 460.345 273.763 470.12 277.738C483.12 283.138 496.082 289.338 506.682 298.801C524.745 314.838 539.407 334.363 552.007 354.888C555.82 355.476 560.47 353.238 559.72 348.738C556.995 335.038 549.907 322.538 547.307 308.788C546.97 305.001 546.457 301.213 545.232 297.613L552.957 301.501L568.32 270.513C575.357 255.901 577.857 239.688 580.295 223.813L587.382 168.788V168.788ZM599.595 168.426C613.282 174.313 628.082 177.376 642.87 178.851L795.47 178.913C804.77 178.788 814.745 180.838 821.645 187.526C828.32 193.976 832.907 203.038 832.745 212.463C832.595 219.826 829.582 226.776 825.832 233.001L757.607 347.176C745.27 363.951 739.882 385.938 744.07 406.426C748.432 423.876 758.732 438.888 767.632 454.238L814.945 534.301C821.332 545.026 828.357 556.051 829.545 568.788C830.595 580.113 825.457 592.913 814.732 597.926C804.907 602.888 793.845 604.951 782.945 605.713L680.445 605.763C660.782 605.176 640.507 605.263 621.77 612.026C613.332 614.951 606.195 620.601 600.07 626.963C591.557 636.213 583.832 646.288 577.92 657.413L538.807 727.926C539.432 718.963 534.645 710.126 526.532 706.163L526.52 653.626C526.27 651.513 527.445 649.713 528.42 647.976L549.02 612.413C554.432 603.026 559.695 593.401 567.057 585.363C574.92 576.688 584.807 570.176 594.87 564.363C604.532 558.776 615.482 555.176 626.707 555.113L690.457 555.101L740.395 555.113C745.87 554.951 751.907 554.501 756.157 550.626C761.782 545.588 761.145 536.501 757.532 530.476L715.007 466.351C705.782 451.988 694.945 438.213 689.72 421.738C685.77 408.913 685.132 395.238 686.495 381.951C688.97 362.113 700.295 345.151 709.857 328.126L754.107 251.076C756.72 246.451 758.545 240.451 755.895 235.463C753.72 231.201 748.695 229.463 744.182 229.551H681.645C654.82 229.301 627.97 230.088 601.157 229.101C604.657 209.038 604.282 188.263 599.595 168.426V168.426ZM599.932 349.238C609.695 321.626 623.532 294.863 644.17 273.776C634.982 322.026 618.37 368.701 597.257 412.976C595.499 416.558 593.498 420.016 591.27 423.326C591.832 424.301 592.37 425.313 592.87 426.363L587.87 428.451C589.995 431.188 594.107 433.138 596.932 430.176C602.37 424.676 605.132 417.213 608.582 410.438C626.132 371.976 640.945 332.051 649.745 290.626C651.37 313.826 649.72 337.276 645.132 360.076C640.482 382.513 632.295 404.626 618.42 423.063C608.857 435.851 596.37 446.426 582.17 453.726C584.77 481.963 577.857 510.376 566.62 536.151C569.307 537.501 571.97 538.913 574.745 540.076C585.632 520.751 597.47 501.888 611.02 484.301C622.107 469.401 637.72 458.626 653.895 449.888C649.432 460.813 644.407 471.513 638.77 481.876C633.595 491.001 628.032 500.126 620.307 507.338C604.157 522.551 586.682 536.238 569.157 549.801C570.995 552.151 572.782 554.526 574.557 556.951C594.157 542.013 613.757 526.838 631.082 509.263C646.532 491.176 655.657 468.851 664.932 447.213L661.42 446.001L666.27 443.426C661.357 468.351 652.42 492.826 638.132 513.951C627.22 530.338 611.732 543.088 595.245 553.551C580.782 562.351 564.595 569.538 547.445 570.176C537.157 594.288 522.895 616.651 505.832 636.538C486.682 657.588 465.795 677.213 442.87 694.113L430.395 665.963L475.645 636.676C479.67 633.988 484.12 631.776 487.345 628.063C503.87 610.813 520.87 593.926 536.132 575.526C547.332 559.138 556.582 541.338 563.382 522.676C568.507 507.913 572.632 492.238 570.845 476.488C565.282 476.038 559.095 476.451 554.457 472.776C556.245 464.126 565.82 462.551 572.22 458.501L526.645 449.338C513.72 447.238 501.782 441.451 490.32 435.376C474.195 426.388 459.382 414.676 448.132 399.938C443.232 393.476 438.257 387.051 434.045 380.113C442.607 389.201 451.857 398.101 463.282 403.488C496.72 419.938 529.482 437.863 564.095 451.776L565.782 446.876C567.682 449.013 569.432 451.276 571.257 453.476C570.932 439.338 572.332 425.026 569.457 411.051C567.37 400.038 565.957 388.613 560.807 378.501C563.882 379.351 567.007 380.026 570.145 380.626L574.407 424.401C577.407 424.326 580.395 424.151 583.395 423.963C585.857 398.513 591.607 373.401 599.932 349.238V349.238ZM434.307 275.951C445.782 289.451 458.195 302.151 471.332 314.038C488.132 329.038 505.12 344.001 523.932 356.488C531.207 361.276 538.032 366.676 545.245 371.551L529.92 367.063C508.295 362.176 488.682 350.288 472.62 335.213C456.157 318.151 444.995 296.888 434.307 275.951V275.951ZM442.095 309.238C451.107 324.226 461.37 338.926 475.345 349.713L475.282 363.651C464.657 359.188 453.245 357.451 442.045 355.138L442.095 309.238V309.238ZM484.407 356.376C494.582 363.426 505.682 369.113 517.395 373.126L517.357 386.413C506.807 379.426 495.82 373.113 484.395 367.688L484.407 356.376V356.376ZM430.182 361.863L454.357 366.913C469.57 369.713 483.432 377.063 496.857 384.463C522.195 398.426 543.745 418.488 561.72 441.013C528.032 426.751 495.807 409.388 463.082 393.138C450.157 385.088 439.732 373.576 430.182 361.863V361.863ZM442.045 407.113C451.582 418.576 462.682 428.788 475.257 436.863L475.332 524.176C464.245 522.863 453.095 522.238 442.02 520.788L442.045 407.113V407.113ZM484.382 524.163L484.445 442.488C494.882 448.401 505.92 453.263 517.382 456.826L517.395 520.763C506.42 522.251 495.357 522.838 484.382 524.163ZM914.345 519.213C927.245 523.613 940.22 528.013 952.382 534.226C955.457 535.926 959.082 537.763 960.157 541.401C961.807 545.801 959.495 550.301 958.095 554.426C949.032 556.676 939.645 556.001 930.42 556.088C898.982 556.076 867.545 556.113 836.12 556.076C834.995 552.926 833.732 549.851 832.37 546.826L946.895 546.776L946.845 537.863L914.357 537.851L914.345 519.213V519.213ZM411.52 542.051C420.245 537.676 429.17 533.626 438.182 529.888C453.845 531.776 469.582 534.013 485.407 533.338C497.295 532.838 509.182 531.688 520.907 529.638C529.282 533.113 537.395 537.188 545.757 540.713C545.095 541.938 544.695 543.513 543.232 544.063C536.07 547.551 528.657 550.576 521.507 554.101C507.882 552.026 494.132 550.563 480.357 550.263C466.532 550.401 452.757 551.963 439.082 553.901C437.345 554.076 435.87 552.951 434.307 552.388L411.52 542.051V542.051ZM13.6821 549.301C24.8201 540.688 39.8451 542.251 52.2951 536.676L52.2571 553.851C43.5071 553.813 34.7701 553.851 26.0201 553.826V562.788L127.832 562.813L125.595 571.351L25.4571 571.363C20.9571 571.051 15.8951 570.976 12.3321 567.776C7.60713 562.638 7.79413 553.551 13.6821 549.301V549.301ZM445.232 562.176C459.382 560.363 473.67 558.676 487.957 559.526C497.857 560.213 507.757 561.176 517.595 562.601C517.532 569.413 518.032 576.313 517.395 583.088C507.695 594.201 497.157 604.551 487.057 615.301C483.445 618.738 480.42 622.888 476.145 625.563L445.207 645.538L445.232 562.176V562.176ZM838.007 565.276L945.495 565.201C948.382 565.151 951.22 564.651 954.107 564.363L926.32 649.738C917.682 650.638 908.807 649.826 900.082 650.138L839.957 570.401C838.67 568.976 838.382 567.076 838.007 565.276V565.276ZM18.2071 580.038C52.2451 580.876 86.3201 580.101 120.357 580.438L73.8951 665.313L49.9701 665.338L18.2071 580.038V580.038ZM837.932 582.651L917.52 688.513C887.37 725.588 853.457 759.701 815.557 788.851C775.882 819.488 732.007 844.751 685.357 863.138C600.17 896.938 506.395 906.763 415.645 896.001C358.945 889.476 303.207 873.776 251.882 848.701C179.795 813.638 117.395 761.126 64.2201 701.626L125.37 590.038C126.957 597.451 129.57 604.913 134.732 610.613C144.307 620.676 154.97 629.601 164.645 639.551C182.12 657.088 200.445 673.776 219.395 689.688C239.182 706.126 259.695 721.851 281.907 734.888C300.732 746.026 321.332 753.751 342.12 760.363C376.307 771.026 411.332 778.838 446.632 784.801C453.532 793.788 462.795 801.901 474.232 804.088C484.57 805.476 495.57 803.763 504.37 797.938C510.47 793.888 514.807 787.863 518.995 782.001C548.195 779.438 576.882 772.626 604.832 763.988C650.02 749.438 694.295 729.676 731.532 699.788C766.22 672.263 797.732 640.951 827.42 608.163C832.907 600.713 835.857 591.601 837.932 582.651ZM828.607 645.363L849.132 661.963C838.707 661.038 828.32 659.676 817.87 658.988C813.732 663.163 810.32 668.051 806.645 672.651C821.182 673.776 835.695 675.288 850.195 676.713C845.182 682.988 839.895 689.063 835.12 695.526L846.382 704.451L872.582 672.063C874.42 669.663 876.695 667.538 878.007 664.776L851.207 661.913C854.082 658.588 856.845 655.151 859.47 651.626L837.782 634.013L828.607 645.363V645.363ZM115.295 654.888L137.32 682.101L126.92 690.538L96.7571 689.813C100.645 694.813 104.607 699.776 108.72 704.613C115.957 704.326 123.182 704.838 130.42 704.726C132.545 705.038 134.007 703.413 135.52 702.251L157.757 684.126L135.632 657.126C137.245 655.776 138.87 654.463 140.507 653.176C137.632 649.276 134.52 645.563 131.495 641.788L115.295 654.888V654.888ZM762.332 719.276L772.782 729.251L797.145 704.176L812.845 719.538L788.645 744.576L799.082 754.701L837.532 714.888C833.957 711.563 830.532 708.088 826.857 704.876L822.945 708.963L796.72 683.663L762.332 719.276ZM163.07 689.701L158.57 711.726L142.745 710.088L126.92 725.288L136.882 735.826C140.595 732.513 144.07 728.938 147.682 725.538L155.445 726.326C154.02 734.276 152.195 742.151 150.67 750.101C154.782 754.088 158.632 758.338 162.745 762.326C164.407 755.226 165.782 748.063 167.382 740.938C172.57 741.526 177.77 742.013 182.995 742.188C188.845 737.688 193.97 732.101 199.27 726.888L189.257 716.451C185.682 720.088 181.907 723.538 178.307 727.163C175.67 726.851 173.02 726.601 170.382 726.401L175.307 702.213C171.295 697.976 167.345 693.676 163.07 689.701V689.701ZM741.207 733.526L750.27 745.263C749.807 747.988 749.257 750.701 748.67 753.413C740.907 750.638 733.02 748.226 725.257 745.476C720.857 748.876 716.245 752.001 711.995 755.576C711.993 755.83 711.985 756.084 711.97 756.338L732.632 763.188L729.045 778.576L742.332 796.251C746.332 793.526 750.145 790.526 754.02 787.613C750.932 783.651 747.87 779.676 745.057 775.513C745.757 773.088 746.27 770.601 746.807 768.138L769.732 775.801C774.27 772.251 779.07 769.001 783.395 765.176L762.945 758.276C763.845 752.926 765.032 747.638 766.145 742.351L752.845 724.701L741.207 733.526V733.526ZM202.12 742.576L227.245 761.451L205.32 790.688L216.807 799.363L247.607 758.651L210.695 731.101C207.932 734.988 205.07 738.813 202.12 742.576ZM256.757 762.938L233.645 808.438L273.87 828.926C275.557 829.626 277.445 831.101 279.332 829.951C284.957 827.926 290.757 826.426 296.307 824.201C302.032 813.401 307.545 802.451 312.995 791.501C308.657 789.476 304.432 787.263 300.232 785.001C295.195 794.263 290.757 803.851 285.707 813.101C282.77 816.213 278.095 815.463 274.77 813.326L291.432 780.676L278.582 773.951C272.82 784.701 267.545 795.688 261.87 806.476C259.007 804.976 256.107 803.538 253.182 802.188C258.545 791.251 264.045 780.363 269.795 769.626L256.757 762.938V762.938ZM631.682 795.863L637.62 809.038L669.12 794.988L683.957 828.351L697.27 822.426L676.582 775.876L631.682 795.863ZM318.095 816.401C322.72 817.663 327.332 818.963 331.907 820.388C333.895 813.176 336.382 806.076 337.87 798.738C333.257 797.626 328.72 796.238 324.157 794.976L318.095 816.401ZM348.157 795.451C346.57 802.126 344.57 808.701 342.52 815.251L376.257 824.863C374.857 829.176 374.257 833.826 372.232 837.901C364.17 843.713 355.52 848.701 347.582 854.701L365.457 859.838L384.695 846.801C388.457 836.413 391.07 825.551 394.095 814.901C382.857 811.951 371.757 808.501 360.557 805.401C361.095 803.388 361.67 801.388 362.257 799.401C357.595 797.938 352.92 796.513 348.157 795.451V795.451ZM572.545 812.176L575.732 826.151C586.995 823.901 598.12 820.988 609.357 818.551L617.62 854.176C622.22 852.901 626.895 851.926 631.57 850.913C628.232 834.301 623.795 817.926 620.457 801.313C604.407 804.551 588.52 808.613 572.545 812.176V812.176ZM642.32 819.763C645.82 827.226 649.02 834.838 652.457 842.338L665.72 836.376C662.232 828.913 658.982 821.338 655.62 813.826L642.32 819.763V819.763ZM528.57 818.038C528.77 822.801 529.382 827.538 529.795 832.301L539.47 831.563C541.157 836.851 543.032 842.076 544.532 847.438L531.295 848.426L528.857 869.188C533.857 868.601 538.87 868.226 543.882 867.726C544.707 861.826 544.882 855.863 545.557 849.951C547.807 855.538 549.745 861.238 551.72 866.938C556.757 866.788 561.795 866.301 566.807 865.676L549.257 816.301C542.357 816.738 535.457 817.313 528.57 818.038ZM496.37 820.888L497.557 835.513C500.304 835.262 503.046 834.962 505.782 834.613C506.307 841.976 507.17 849.313 507.707 856.676L499.595 857.201C499.895 862.088 500.12 866.988 500.87 871.838C508.407 870.876 516.007 870.588 523.545 869.588C521.67 852.776 520.695 835.876 518.895 819.051C511.37 819.551 503.895 820.463 496.37 820.888V820.888ZM435.295 818.876C434.92 823.613 434.782 828.388 434.02 833.101L468.495 836.051C467.395 848.063 466.645 860.126 465.082 872.076C469.87 873.276 474.845 873.226 479.745 873.701L484.132 823.101L435.295 818.876V818.876ZM578.457 837.626C580.132 845.751 582.132 853.801 583.982 861.888C588.595 860.751 593.207 859.563 597.907 858.726C596.345 850.576 594.395 842.513 592.345 834.476C587.745 835.651 583.107 836.701 578.457 837.626V837.626ZM433.257 845.001C432.195 853.113 431.82 861.301 430.97 869.438C435.757 870.001 440.57 870.363 445.37 870.763C445.957 862.488 447.045 854.263 447.42 845.988C442.682 845.838 437.97 845.388 433.257 845.001V845.001ZM777.882 614.738C790.72 615.063 803.532 612.388 815.482 607.738C800.87 623.926 785.432 639.363 769.695 654.438L724.632 614.688L777.882 614.738ZM157.782 620.176C168.795 623.263 180.245 624.813 191.682 624.726L239.882 624.713L200.245 660.876C185.532 647.901 171.957 633.738 157.782 620.176V620.176ZM444.682 704.288C471.295 684.513 495.982 662.001 517.632 636.863L517.695 704.426C493.357 704.363 469.007 704.626 444.682 704.288ZM441.957 713.938C443.895 713.401 445.932 713.401 447.932 713.401L516.657 713.426C521.82 713.226 527.195 716.201 528.845 721.263C531.995 728.363 525.757 737.413 518.02 737.013C493.795 737.038 469.57 736.988 445.357 737.026C439.707 737.501 434.257 733.101 433.37 727.551C432.02 721.676 436.157 715.326 441.957 713.938V713.938ZM430.357 740.363C433.895 743.388 438.195 745.938 442.995 745.951L519.22 745.963C523.732 746.101 527.845 743.901 531.345 741.263C524.507 753.038 518.407 765.251 511.082 776.738C505.657 784.876 498.332 793.201 488.132 794.751C480.007 796.601 471.157 794.676 464.495 789.701C458.007 784.876 453.295 778.126 449.032 771.363L430.357 740.363V740.363Z" fill="white"/>
<path d="M455.607 1.701C465.807 -1.136 477.382 -0.636 486.657 4.826C495.17 9.526 501.32 17.388 506.395 25.501L558.62 109.426C566.17 121.288 572.732 133.951 582.845 143.938L588.395 139.613C591.545 144.701 593.67 150.301 596.02 155.776C601.445 160.213 608.395 162.263 614.982 164.376C626.132 167.351 637.57 170.163 649.207 169.663L794.232 169.638C804.557 169.776 815.357 171.488 823.932 177.626C834.707 185.638 842.07 198.763 841.607 212.363C841.682 220.888 838.745 229.163 834.407 236.401L765.182 352.226C754.432 366.763 749.357 385.701 752.67 403.588C756.307 418.363 764.62 431.301 772.295 444.238L827.67 537.863L905.132 537.851L905.12 506.826C920.532 511.513 935.857 516.663 950.582 523.251C957.57 526.538 965.82 529.988 968.582 537.913C971.782 546.251 967.857 554.851 964.282 562.338L932.97 659.113C924.232 659.188 915.495 659.063 906.757 659.188L928.982 688.663C875.482 756.563 808.27 814.363 730.62 852.876C653.07 891.813 565.87 910.401 479.257 909.088C421.17 908.526 362.895 899.963 307.77 881.338C261.732 865.976 218.132 843.613 178.27 816.001C131.882 783.988 90.5699 745.126 53.1199 703.113L68.9079 674.351C60.5079 674.363 52.1079 674.301 43.7079 674.376L7.72092 577.676C6.54592 574.338 3.68392 571.988 2.22092 568.813C-1.36608 561.163 -0.779081 551.138 5.25892 544.876C12.3459 537.151 22.9969 534.326 32.9589 532.576C42.8339 531.101 52.0339 527.051 61.2589 523.451L61.2969 553.838L130.947 553.876L182.984 463.613C188.909 453.113 195.509 442.951 200.109 431.763C204.209 421.838 207.947 411.038 205.759 400.163C203.472 389.626 199.159 379.626 194.122 370.138L122.709 243.676C118.022 235.201 113.772 225.901 113.972 216.013C114.784 202.801 122.622 190.026 134.484 183.938C140.209 181.101 146.559 179.338 152.972 179.326L295.484 179.313C306.272 179.338 317.297 177.788 326.934 172.676C334.822 168.401 342.459 163.438 348.797 157.051C357.409 148.426 362.372 137.126 368.534 126.801L429.834 24.188C435.772 14.288 444.172 4.988 455.609 1.701H455.607ZM449.92 14.563C441.582 20.675 436.945 30.163 431.682 38.763L390.495 107.976L424.47 124.938C428.695 127.001 432.345 130.013 436.295 132.526C437.295 130.476 438.445 128.463 438.882 126.188C442.582 107.338 448.32 88.738 457.257 71.663C463.095 60.976 469.845 50.4 479.532 42.788C482.52 44.926 485.382 47.288 487.732 50.15C499.757 64.15 507.695 81.188 513.445 98.6C521.37 122.2 524.407 147.075 526.282 171.762C532.607 181.925 538.295 192.687 546.332 201.65C552.732 182.712 562.82 164.987 576.282 150.2C571.695 145.187 567.045 140.15 563.407 134.375L498.232 29.601C494.595 23.863 490.32 18.376 484.782 14.376C474.72 6.976 459.945 7.264 449.92 14.564V14.563ZM450.02 117.601C444.545 140.426 442.17 163.951 442.057 187.401L441.995 257.963C453.232 261.588 464.407 265.476 475.307 270.063L475.295 109.551L484.432 109.588L484.457 274.151C496.557 279.638 507.895 286.913 517.382 296.276L517.332 181.338C516.37 149.026 511.907 116.238 499.132 86.313C494.095 75.038 488.195 63.875 479.57 54.925C464.195 72.637 455.595 95.1 450.02 117.6V117.601ZM370.707 141.388C365.307 151.338 359.007 161.088 350.07 168.251C340.82 175.638 330.582 182.201 319.095 185.451C311.845 187.588 304.245 188.213 296.707 188.288C249.607 188.263 202.507 188.301 155.407 188.263C150.77 188.238 146.132 189.013 141.782 190.613C131.645 194.301 124.47 204.313 123.195 214.876C122.42 223.876 126.832 232.126 130.945 239.788L193.982 351.401C201.945 365.238 210.032 379.313 213.82 394.976C216.07 403.476 215.82 412.526 213.445 420.976C210.282 432.488 205.282 443.451 199.195 453.713L141.557 553.488C134.645 566.113 131.207 582.088 137.495 595.638C141.282 604.426 150.795 608.463 159.32 611.226C178.282 617.238 198.332 615.451 217.895 615.701L315.42 615.813C333.595 616.151 351.595 623.026 364.845 635.551C372.057 642.313 377.245 650.838 382.157 659.313L424.695 731.013C422.045 721.213 427.195 710.288 436.457 706.113C436.345 703.951 436.52 701.726 435.482 699.763L418.932 662.476L436.732 651.026C429.27 638.651 421.17 626.651 413.445 614.438C407.72 605.676 402.482 596.488 395.345 588.763C388.332 581.163 379.495 575.588 370.52 570.626C361.407 565.701 351.945 560.913 341.595 559.313C334.595 558.076 327.457 558.101 320.37 558.101C287.045 558.113 253.707 558.088 220.37 558.113C216.607 558.113 212.382 557.288 209.932 554.188C207.195 550.638 207.932 545.588 210.07 541.926L267.407 441.926C275.782 427.426 278.157 409.888 275.07 393.526C272.845 382.001 266.757 371.776 260.745 361.876L196.845 255.963C194.632 252.551 193.645 247.763 196.232 244.288C198.957 240.726 203.77 239.651 208.02 239.563L329.195 239.576C334.67 239.551 340.157 239.263 345.57 238.388C358.745 236.513 371.032 230.226 381.145 221.726C391.382 213.001 397.295 200.676 403.62 189.101C404.72 187.701 403.42 186.288 402.832 185.038C393.595 168.851 388.07 150.576 386.382 132.101C386.557 125.476 387.057 118.876 387.632 112.288C382.17 122.088 376.032 131.501 370.707 141.388V141.388ZM395.795 120.788C395.707 124.288 395.72 127.788 395.695 131.288C409.02 144.413 421.895 158.038 433.382 172.813C433.882 163.113 434.67 153.426 435.932 143.788C430.257 139.638 424.795 135.076 418.382 132.063L395.795 120.788ZM397.482 146.001C400.77 159.876 405.932 173.426 413.657 185.463L432.307 212.238C432.545 205.188 433.57 198.113 432.77 191.088C430.982 184.588 426.62 179.213 422.607 173.938C414.782 164.151 406.295 154.901 397.482 146.001ZM553.52 208.826C546.132 232.051 545.02 256.713 546.595 280.876L538.645 283.663L526.432 266.613C526.795 270.488 525.932 274.651 526.92 278.363C533.67 283.851 540.77 289.338 545.032 297.138C550.395 285.838 556.407 274.851 561.557 263.451C568.232 247.651 570.082 230.426 572.595 213.613L578.982 162.776C581.945 162.538 585.957 164.926 588.295 162.676C587.92 159.613 586.482 156.813 585.532 153.913C570.332 169.051 559.907 188.476 553.52 208.826V208.826ZM587.382 168.788C585.295 187.163 582.845 205.488 580.295 223.813C577.857 239.688 575.357 255.901 568.32 270.513L552.957 301.501L545.232 297.613C546.457 301.213 546.97 305.001 547.307 308.788C549.907 322.538 556.995 335.038 559.72 348.738C560.47 353.238 555.82 355.476 552.007 354.888C539.407 334.363 524.745 314.838 506.682 298.801C496.082 289.338 483.12 283.138 470.12 277.738C460.345 273.763 450.445 270.076 440.307 267.138L441.395 266.238L438.432 266.713C435.207 265.301 431.795 264.376 428.432 263.326L432.17 271.088C434.157 269.813 436.082 268.438 437.945 266.976C440.895 268.813 442.895 271.676 445.045 274.326C455.07 286.238 466.207 297.163 477.782 307.563C495.62 323.713 514.02 339.351 534.207 352.513C545.557 360.876 557.332 370.001 571.807 371.713L571.995 375.263C574.545 373.663 579.757 372.613 578.907 368.713C577.032 364.376 572.182 362.501 567.707 362.788C562.807 351.688 558.62 340.276 555.332 328.601C553.595 322.113 551.957 315.426 552.595 308.676C553.382 302.888 558.357 299.151 561.207 294.388C573.482 276.026 582.77 255.801 590.57 235.188C596.12 212.413 595.87 188.126 589.395 165.563C587.607 163.688 587.457 168.063 587.382 168.788V168.788ZM599.595 168.426C604.282 188.263 604.657 209.038 601.157 229.101C627.97 230.088 654.82 229.301 681.645 229.551H744.182C748.695 229.463 753.72 231.201 755.895 235.463C758.545 240.451 756.72 246.451 754.107 251.076L709.857 328.126C700.295 345.151 688.97 362.113 686.495 381.951C685.132 395.238 685.77 408.913 689.72 421.738C694.945 438.213 705.782 451.988 715.007 466.351L757.532 530.476C761.145 536.501 761.782 545.588 756.157 550.626C751.907 554.501 745.87 554.951 740.395 555.113C723.745 555.088 707.095 555.126 690.457 555.101C669.207 555.126 647.957 555.076 626.707 555.113C615.482 555.176 604.532 558.776 594.87 564.363C584.807 570.176 574.92 576.688 567.057 585.363C559.695 593.401 554.432 603.026 549.02 612.413L528.42 647.976C527.445 649.713 526.27 651.513 526.52 653.626L526.532 706.163C534.645 710.126 539.432 718.963 538.807 727.926L577.92 657.413C583.832 646.288 591.557 636.213 600.07 626.963C606.195 620.601 613.332 614.951 621.77 612.026C640.507 605.263 660.782 605.176 680.445 605.763L782.945 605.713C793.845 604.951 804.907 602.888 814.732 597.926C825.457 592.913 830.595 580.113 829.545 568.788C828.357 556.051 821.332 545.026 814.945 534.301L767.632 454.238C758.732 438.888 748.432 423.876 744.07 406.426C739.882 385.938 745.27 363.951 757.607 347.176L825.832 233.001C829.582 226.776 832.595 219.826 832.745 212.463C832.907 203.038 828.32 193.976 821.645 187.526C814.745 180.838 804.77 178.788 795.47 178.913C744.607 178.838 693.732 178.951 642.87 178.851C628.082 177.376 613.282 174.313 599.595 168.426V168.426ZM526.32 189.313L526.37 248.801C526.07 250.601 527.37 251.976 528.27 253.376C531.145 257.313 533.845 261.401 536.907 265.213C536.757 247.301 538.357 229.276 543.195 211.988C536.632 205.176 531.27 197.338 526.32 189.313V189.313ZM392.57 223.263C381.57 234.938 366.932 243.276 351.22 246.576C339.457 249.076 327.382 248.438 315.457 248.513C280.432 248.513 245.407 248.538 210.382 248.501C208.057 248.476 205.782 248.951 203.532 249.413L264.582 350.663C270.657 360.801 277.332 370.763 281.257 382.013C285.957 394.913 286.07 409.051 284.082 422.501C281.92 435.788 274.92 447.501 268.195 458.938L220.757 541.551C219.32 543.926 217.932 546.338 217.007 548.963L312.895 549.101C324.545 549.213 336.407 548.488 347.807 551.351C358.695 553.901 368.707 559.088 378.345 564.601C386.395 569.188 394.157 574.463 400.607 581.163C409.332 589.851 415.257 600.763 422.007 610.938C426.832 618.251 431.282 625.801 436.32 632.963L436.357 563.251L389.482 541.851L432.87 522.163L433.032 398.676C433.695 393.213 428.72 389.663 426.42 385.251C419.682 374.113 411.17 362.476 411.945 348.801L433.02 353.188L432.845 293.488C425.92 279.176 418.782 264.901 413.082 250.013C419.745 251.501 426.332 253.301 432.845 255.313C433.007 246.051 433.332 236.751 432.745 227.526C424.595 217.576 417.37 206.913 410.107 196.313C404.845 205.638 400.007 215.413 392.57 223.263V223.263ZM562.37 308.163C560.87 310.113 561.507 312.713 561.682 314.963C563.695 328.551 568.782 341.426 573.845 354.113C578.82 355.463 583.12 358.476 586.182 362.613C598.22 320.526 619.42 279.063 655.007 252.201C660.395 281.888 660.745 312.401 657.22 342.338C653.97 367.988 647.195 393.588 634.032 416.026C623.857 433.463 609.395 448.488 591.957 458.713C592.182 473.026 590.77 487.376 587.582 501.338C597.632 486.938 607.357 471.913 621.12 460.713C637.982 447.001 657.395 436.638 677.632 428.851C675.345 450.063 669.62 470.851 661.27 490.463C652.082 511.588 639.095 531.613 620.87 546.026L743.045 545.926C745.632 545.763 748.62 545.451 750.482 543.438C752.382 540.726 750.857 537.163 749.382 534.626L691.757 447.413C678.295 426.488 674.145 400.501 678.295 376.163C681.22 359.813 689.532 345.176 697.732 330.976L741.982 253.913C744.557 249.301 747.87 244.913 748.47 239.501C746.257 238.988 744.02 238.526 741.745 238.563L635.445 238.576C623.37 238.513 611.282 238.863 599.22 237.988C589.77 262.688 578.607 287.126 562.37 308.163V308.163ZM599.932 349.238C591.607 373.401 585.857 398.513 583.395 423.963L574.407 424.401L570.145 380.626C567.007 380.026 563.882 379.351 560.807 378.501C565.957 388.613 567.37 400.038 569.457 411.051C572.332 425.026 570.932 439.338 571.257 453.476C569.432 451.276 567.682 449.013 565.782 446.876L564.095 451.776C529.482 437.863 496.72 419.938 463.282 403.488C451.857 398.101 442.607 389.201 434.045 380.113C438.257 387.051 443.232 393.476 448.132 399.938C459.382 414.676 474.195 426.388 490.32 435.376C501.782 441.451 513.72 447.238 526.645 449.338L572.22 458.501C565.82 462.551 556.245 464.126 554.457 472.776C559.095 476.451 565.282 476.038 570.845 476.488C572.632 492.238 568.507 507.913 563.382 522.676C556.582 541.338 547.332 559.138 536.132 575.526C520.87 593.926 503.87 610.813 487.345 628.063C484.12 631.776 479.67 633.988 475.645 636.676L430.395 665.963L442.87 694.113C465.795 677.213 486.682 657.588 505.832 636.538C522.895 616.651 537.157 594.288 547.445 570.176C564.595 569.538 580.782 562.351 595.245 553.551C611.732 543.088 627.22 530.338 638.132 513.951C652.42 492.826 661.357 468.351 666.27 443.426L661.42 446.001L664.932 447.213C655.657 468.851 646.532 491.176 631.082 509.263C613.757 526.838 594.157 542.013 574.557 556.951C572.782 554.526 570.995 552.151 569.157 549.801C586.682 536.238 604.157 522.551 620.307 507.338C628.032 500.126 633.595 491.001 638.77 481.876C644.407 471.513 649.432 460.813 653.895 449.888C637.72 458.626 622.107 469.401 611.02 484.301C597.47 501.888 585.632 520.751 574.745 540.076C571.97 538.913 569.307 537.501 566.62 536.151C577.857 510.376 584.77 481.963 582.17 453.726C596.37 446.426 608.857 435.851 618.42 423.063C632.295 404.626 640.482 382.513 645.132 360.076C649.72 337.276 651.37 313.826 649.745 290.626C640.945 332.051 626.132 371.976 608.582 410.438C605.132 417.213 602.37 424.676 596.932 430.176C594.107 433.138 589.995 431.188 587.87 428.451L592.87 426.363C592.37 425.313 591.832 424.301 591.27 423.326C593.498 420.016 595.498 416.558 597.257 412.976C618.37 368.701 634.982 322.026 644.17 273.776C623.532 294.863 609.695 321.626 599.932 349.238V349.238ZM434.307 275.951C444.995 296.888 456.157 318.151 472.62 335.213C488.682 350.288 508.295 362.176 529.92 367.063L545.245 371.551C538.032 366.676 531.207 361.276 523.932 356.488C505.12 344.001 488.132 329.038 471.332 314.038C458.195 302.151 445.782 289.451 434.307 275.951V275.951ZM526.382 289.626L526.332 305.201C531.995 311.451 537.332 317.976 542.545 324.613C540.145 318.688 538.37 312.488 537.907 306.113C537.47 298.938 531.357 294.026 526.382 289.626V289.626ZM442.095 309.238L442.045 355.138C453.245 357.451 464.657 359.188 475.282 363.651L475.345 349.713C461.37 338.926 451.107 324.226 442.095 309.238V309.238ZM484.407 356.376L484.395 367.688C495.82 373.113 506.807 379.426 517.357 386.413L517.395 373.126C505.682 369.113 494.582 363.426 484.407 356.376V356.376ZM430.182 361.863C439.732 373.576 450.157 385.088 463.082 393.138C495.807 409.388 528.032 426.751 561.72 441.013C543.745 418.488 522.195 398.426 496.857 384.463C483.432 377.063 469.57 369.713 454.357 366.913L430.182 361.863V361.863ZM526.345 375.401L526.332 392.876C539.445 403.176 551.357 414.913 562.395 427.376C561.62 416.213 559.307 405.213 556.932 394.288C555.807 390.463 555.057 386.313 552.595 383.101C543.932 380.263 535.045 378.126 526.345 375.401ZM580.032 387.788C580.557 385.301 581.02 382.801 581.32 380.276C578.27 381.851 579.757 385.163 580.032 387.788ZM442.045 407.113L442.02 520.788C453.095 522.238 464.245 522.863 475.332 524.176L475.257 436.863C462.682 428.788 451.582 418.576 442.045 407.113V407.113ZM484.382 524.163C495.357 522.838 506.42 522.251 517.395 520.763L517.382 456.826C505.92 453.263 494.882 448.401 484.445 442.488L484.382 524.163ZM526.37 458.463L526.307 521.888C534.082 525.563 541.87 529.201 549.795 532.526C556.12 517.388 561.645 501.563 562.332 485.026C556.92 484.238 550.682 482.851 547.47 477.976C544.432 473.313 546.257 467.476 548.882 463.088C541.395 461.413 533.845 460.088 526.37 458.463V458.463ZM914.345 519.213L914.357 537.851L946.845 537.863L946.895 546.776C908.72 546.863 870.545 546.763 832.37 546.826C833.732 549.851 834.995 552.926 836.12 556.076L930.42 556.088C939.645 556.001 949.032 556.676 958.095 554.426C959.495 550.301 961.807 545.801 960.157 541.401C959.082 537.763 955.457 535.926 952.382 534.226C940.22 528.013 927.245 523.613 914.345 519.213V519.213ZM411.52 542.051L434.307 552.388C435.87 552.951 437.345 554.076 439.082 553.901C452.757 551.963 466.532 550.401 480.357 550.263C494.132 550.563 507.882 552.026 521.507 554.101C528.657 550.576 536.07 547.551 543.232 544.063C544.695 543.513 545.095 541.938 545.757 540.713C537.395 537.188 529.282 533.113 520.907 529.638C509.182 531.688 497.295 532.838 485.407 533.338C469.582 534.013 453.845 531.776 438.182 529.888C429.17 533.626 420.245 537.676 411.52 542.051V542.051ZM13.6819 549.301C7.79492 553.551 7.60692 562.638 12.3319 567.776C15.8949 570.976 20.9569 571.051 25.4569 571.363L125.595 571.351L127.832 562.813L26.0199 562.788V553.826L52.2569 553.851L52.2949 536.676C39.8449 542.251 24.8199 540.688 13.6829 549.301H13.6819ZM526.495 561.838L526.545 572.688C531.07 568.026 533.945 562.126 537.295 556.638L526.495 561.838V561.838ZM445.232 562.176L445.207 645.538L476.145 625.563C480.42 622.888 483.445 618.738 487.057 615.301C497.157 604.551 507.695 594.201 517.395 583.088C518.032 576.313 517.532 569.413 517.595 562.601C507.757 561.176 497.857 560.213 487.957 559.526C473.67 558.676 459.382 560.363 445.232 562.176V562.176ZM838.007 565.276C838.382 567.076 838.67 568.976 839.957 570.401L900.082 650.138C908.807 649.826 917.682 650.638 926.32 649.738L954.107 564.363C951.22 564.651 948.382 565.151 945.495 565.201C909.67 565.263 873.832 565.101 838.007 565.276V565.276ZM553.795 578.613C546.195 594.913 537.107 610.513 526.532 625.063L526.432 633.163L547.482 596.976C551.57 590.088 556.245 583.538 561.732 577.688L553.795 578.613V578.613ZM18.2069 580.038L49.9699 665.338L73.8949 665.313L120.357 580.438C86.3199 580.101 52.2449 580.876 18.2069 580.038ZM837.932 582.651C835.857 591.601 832.907 600.713 827.42 608.163C797.732 640.951 766.22 672.263 731.532 699.788C694.295 729.676 650.02 749.438 604.832 763.988C576.882 772.626 548.195 779.438 518.995 782.001C514.807 787.863 510.47 793.888 504.37 797.938C495.57 803.763 484.57 805.476 474.232 804.088C462.795 801.901 453.532 793.788 446.632 784.801C411.332 778.838 376.307 771.026 342.12 760.363C321.332 753.751 300.732 746.026 281.907 734.888C259.695 721.851 239.182 706.126 219.395 689.688C200.445 673.776 182.12 657.088 164.645 639.551C154.97 629.601 144.307 620.676 134.732 610.613C129.57 604.913 126.957 597.451 125.37 590.038L64.2199 701.626C117.395 761.126 179.795 813.638 251.882 848.701C303.207 873.776 358.945 889.476 415.645 896.001C506.395 906.763 600.17 896.938 685.357 863.138C732.007 844.751 775.882 819.488 815.557 788.851C853.457 759.701 887.37 725.588 917.52 688.513L837.932 582.651V582.651ZM777.882 614.738C760.132 614.688 742.382 614.788 724.632 614.688L769.695 654.438C785.432 639.363 800.87 623.926 815.482 607.738C803.532 612.388 790.72 615.063 777.882 614.738ZM615.807 625.213C604.67 633.676 596.107 645.076 588.695 656.813L524.407 772.351C561.895 768.113 598.532 757.751 633.67 744.188C657.632 734.638 681.045 723.463 702.745 709.463C724.27 695.076 744.095 678.313 762.995 660.676L710.645 614.688C693.92 614.876 677.195 614.613 660.482 614.588C645.245 615.576 628.932 616.576 615.807 625.213V625.213ZM157.782 620.176C171.957 633.738 185.532 647.901 200.245 660.876L239.882 624.713C223.82 624.713 207.745 624.701 191.682 624.726C180.245 624.813 168.795 623.263 157.782 620.176V620.176ZM206.995 667.038C231.657 688.613 257.12 709.551 285.332 726.363C305.907 738.688 328.632 746.813 351.482 753.763C380.657 762.513 410.432 769.151 440.395 774.601L379.22 672.263C373.32 662.526 368.207 652.138 360.295 643.813C353.47 636.876 344.895 631.776 335.782 628.426C326.907 625.176 317.332 624.963 307.995 624.701C289.732 624.926 271.395 624.326 253.17 624.988L206.995 667.038V667.038ZM444.682 704.288L517.695 704.426L517.632 636.863C495.982 662.001 471.295 684.513 444.682 704.288V704.288ZM441.957 713.938C436.157 715.326 432.02 721.676 433.37 727.551C434.257 733.101 439.707 737.501 445.357 737.026L518.02 737.013C525.757 737.413 531.995 728.363 528.845 721.263C527.195 716.201 521.82 713.226 516.657 713.426C493.757 713.401 470.845 713.451 447.932 713.401C445.932 713.401 443.895 713.401 441.957 713.938ZM430.357 740.363C436.745 750.601 442.72 761.076 449.032 771.363C453.295 778.126 458.007 784.876 464.495 789.701C471.157 794.676 480.007 796.601 488.132 794.751C498.332 793.201 505.657 784.876 511.082 776.738C518.407 765.251 524.507 753.038 531.345 741.263C527.845 743.901 523.732 746.101 519.22 745.963C493.807 745.976 468.407 746.001 442.995 745.951C438.195 745.938 433.895 743.388 430.357 740.363V740.363ZM828.607 645.363L837.782 634.013L859.47 651.626C856.845 655.151 854.082 658.588 851.207 661.913C860.107 663.076 869.082 663.738 878.007 664.776C876.695 667.538 874.42 669.663 872.582 672.063L846.382 704.451C842.57 701.526 838.895 698.451 835.12 695.526C839.895 689.063 845.182 682.988 850.195 676.713L806.645 672.651C810.32 668.051 813.732 663.163 817.87 658.988C828.32 659.676 838.707 661.038 849.132 661.963L828.607 645.363V645.363ZM115.295 654.888L131.495 641.788C134.52 645.563 137.632 649.276 140.507 653.176L135.632 657.126C143.182 665.976 150.257 675.238 157.757 684.126L135.52 702.251C134.007 703.413 132.545 705.038 130.42 704.726C123.182 704.838 115.957 704.326 108.72 704.613C104.607 699.776 100.645 694.813 96.7569 689.813C106.807 690.238 116.87 690.201 126.92 690.538L137.32 682.101L115.295 654.888V654.888ZM762.332 719.276L796.72 683.663L822.945 708.963L826.857 704.876C830.532 708.088 833.957 711.563 837.532 714.888L799.082 754.701L788.645 744.576L812.845 719.538C807.757 714.276 802.357 709.313 797.145 704.176L772.782 729.251C769.232 725.988 765.845 722.563 762.332 719.276V719.276ZM163.07 689.701C167.345 693.676 171.295 697.976 175.307 702.213L170.382 726.401C173.02 726.601 175.67 726.851 178.307 727.163C181.907 723.538 185.682 720.088 189.257 716.451L199.27 726.888C193.97 732.101 188.845 737.688 182.995 742.188C177.77 742.013 172.57 741.526 167.382 740.938L162.745 762.326C158.632 758.338 154.782 754.088 150.67 750.101L155.445 726.326L147.682 725.538C144.07 728.938 140.595 732.513 136.882 735.826C133.62 732.251 130.27 728.776 126.92 725.288C132.332 720.376 137.52 715.213 142.745 710.088C148.032 710.476 153.307 711.113 158.57 711.726L163.07 689.701V689.701ZM741.207 733.526C745.02 730.501 748.932 727.601 752.845 724.701L766.145 742.351C765.032 747.638 763.845 752.926 762.945 758.276C769.795 760.463 776.545 762.951 783.395 765.176C779.07 769.001 774.27 772.251 769.732 775.801L746.807 768.138C746.27 770.601 745.757 773.088 745.057 775.513C747.87 779.676 750.932 783.651 754.02 787.613C750.145 790.526 746.332 793.526 742.332 796.251L729.045 778.576C730.345 773.463 731.42 768.313 732.632 763.188L711.97 756.338C711.984 756.084 711.993 755.83 711.995 755.576C716.245 752.001 720.857 748.876 725.257 745.476L748.67 753.413C749.257 750.701 749.807 747.988 750.27 745.263C747.157 741.413 744.257 737.413 741.207 733.526ZM202.12 742.576C205.07 738.813 207.932 734.988 210.695 731.101C223.207 740.001 235.245 749.538 247.607 758.651L216.807 799.363C213.02 796.413 209.17 793.551 205.32 790.688L227.245 761.451L202.12 742.576ZM256.757 762.938L269.795 769.626C264.045 780.363 258.545 791.251 253.182 802.188C256.107 803.538 259.007 804.976 261.87 806.476L278.582 773.951C282.82 776.288 287.182 778.388 291.432 780.676L274.77 813.326C278.095 815.463 282.77 816.213 285.707 813.101C290.757 803.851 295.195 794.263 300.232 785.001C304.432 787.263 308.657 789.476 312.995 791.501L296.307 824.201C290.757 826.426 284.957 827.926 279.332 829.951C277.445 831.101 275.557 829.626 273.87 828.926L233.645 808.438L256.757 762.938V762.938ZM631.682 795.863L676.582 775.876L697.27 822.426C692.795 824.313 688.37 826.338 683.957 828.351L669.12 794.988L637.62 809.038L631.682 795.863V795.863ZM318.095 816.401L324.157 794.976L337.87 798.738C336.382 806.076 333.895 813.176 331.907 820.388C327.332 818.963 322.72 817.663 318.095 816.401ZM348.157 795.451C352.92 796.513 357.595 797.938 362.257 799.401L360.557 805.401L394.095 814.901C391.07 825.551 388.457 836.413 384.695 846.801C378.395 851.288 371.92 855.563 365.457 859.838L347.582 854.701C355.52 848.701 364.17 843.713 372.232 837.901C374.257 833.826 374.857 829.176 376.257 824.863L342.52 815.251C344.57 808.701 346.57 802.126 348.157 795.451V795.451ZM572.545 812.176L620.457 801.313C623.795 817.926 628.232 834.301 631.57 850.913C626.895 851.926 622.22 852.901 617.62 854.176L609.357 818.551L575.732 826.151C574.595 821.501 573.545 816.838 572.545 812.176V812.176ZM642.32 819.763L655.62 813.826L665.72 836.376L652.457 842.338L642.32 819.763V819.763ZM528.57 818.038C535.457 817.313 542.357 816.738 549.257 816.301L566.807 865.676C561.795 866.301 556.757 866.788 551.72 866.938C549.745 861.238 547.807 855.538 545.557 849.951C544.882 855.863 544.707 861.826 543.882 867.726L528.857 869.188C529.87 862.288 530.432 855.338 531.295 848.426L544.532 847.438C543.032 842.076 541.157 836.851 539.47 831.563L529.795 832.301C529.382 827.538 528.77 822.801 528.57 818.038ZM496.37 820.888C503.895 820.463 511.37 819.551 518.895 819.051C520.695 835.876 521.67 852.776 523.545 869.588C516.007 870.588 508.407 870.876 500.87 871.838C500.12 866.988 499.895 862.088 499.595 857.201L507.707 856.676L505.782 834.613C503.046 834.962 500.304 835.262 497.557 835.513C497.245 830.626 496.72 825.763 496.37 820.888V820.888ZM435.295 818.876L484.132 823.101L479.745 873.701C474.845 873.226 469.87 873.276 465.082 872.076C466.645 860.126 467.395 848.063 468.495 836.051C456.982 835.351 445.507 834.138 434.02 833.101C434.782 828.388 434.92 823.613 435.295 818.876V818.876ZM578.457 837.626C583.107 836.701 587.745 835.651 592.345 834.476C594.395 842.513 596.345 850.576 597.907 858.726C593.207 859.563 588.595 860.751 583.982 861.888L578.457 837.626V837.626ZM433.257 845.001C437.97 845.388 442.682 845.838 447.42 845.988C447.045 854.263 445.957 862.488 445.37 870.763L430.97 869.438C431.82 861.301 432.195 853.113 433.257 845.001V845.001Z" fill="#010103"/>
</svg>
