<svg width="981" height="889" viewBox="0 0 981 889" fill="none" xmlns="http://www.w3.org/2000/svg">
<g clip-path="url(#clip0_104_2)">
<path d="M912.296 571.034L943.345 571.115C952.316 571.136 965.866 566.941 974.764 559.276C968.307 535.908 925.926 530.5 908.331 530.819L912.296 571.034Z" fill="url(#paint0_linear_104_2)" stroke="url(#paint1_linear_104_2)" stroke-width="10.1735"/>
<path d="M828.805 571.276L827.503 686.547L948.253 677.258C967.002 674.088 970.064 664.557 970.546 654.037L975.19 576.229C975.19 576.229 975.947 564.036 975.262 560.79C973.978 554.69 969.35 553.158 965.735 556.862C961.214 561.496 949.799 569.807 939.893 569.727L828.805 571.276Z" fill="url(#paint2_linear_104_2)" stroke="url(#paint3_linear_104_2)" stroke-width="10.1735"/>
<path d="M68.4048 571.508L37.3562 571.59C28.3851 571.61 14.8351 567.415 5.93684 559.751C12.3945 536.382 54.7749 530.974 72.3706 531.294L68.4048 571.508Z" fill="url(#paint4_linear_104_2)" stroke="url(#paint5_linear_104_2)" stroke-width="10.1735"/>
<path d="M151.896 571.749L153.198 687.021L32.4475 677.733C13.6991 674.563 10.6371 665.031 10.1552 654.511L5.51052 576.703C5.51052 576.703 4.75443 564.51 5.4387 561.264C6.72301 555.164 11.3508 553.632 14.9658 557.337C19.4873 561.97 30.902 570.282 40.8081 570.201L151.896 571.749Z" fill="url(#paint6_linear_104_2)" stroke="url(#paint7_linear_104_2)" stroke-width="10.1735"/>
<path fill-rule="evenodd" clip-rule="evenodd" d="M155.126 571.276L84.6772 681.788C189.877 817.776 318.071 884.74 489.928 883.529C661.786 884.74 789.985 817.776 895.185 681.788L824.737 571.276C772.553 686.276 641.487 770.842 489.928 770.283C338.372 770.841 207.308 686.275 155.126 571.276Z" fill="url(#paint8_radial_104_2)" stroke="url(#paint9_linear_104_2)" stroke-width="10.1735" stroke-linecap="round" stroke-linejoin="round"/>
<path fill-rule="evenodd" clip-rule="evenodd" d="M487.161 1.79469C467.017 1.79469 448.205 12.6428 438.022 30.1316C379.48 156.457 352.718 152.426 222.195 156.525C202.271 157.19 184.339 168.035 174.602 185.079C164.64 202.348 164.422 223.594 174.164 240.863C250.491 353.822 237.774 374.962 178.146 487.228C168.849 504.497 169.293 525.521 179.25 542.57C189.212 559.609 207.14 570.239 226.839 570.904C367.238 561.211 376.826 589.743 448.867 701.292C459.494 717.896 477.866 727.632 497.57 727.407C517.05 727.188 535.202 716.783 545.384 700.185C606.355 576.63 628.411 574.568 756.336 573.788C776.484 573.563 795.073 562.718 805.261 545.451C815.216 527.968 815.44 506.503 805.699 489.016C727.152 375.453 746.898 352.473 805.482 235.998C814.334 218.514 813.452 197.705 803.484 181.101V181.097C793.527 164.274 775.595 153.871 756.115 153.426C614.937 162.723 603.178 143.011 536.303 29.6864C526.121 12.4178 507.306 1.79456 487.161 1.79456L487.161 1.79469ZM487.465 41.9677C505.406 41.9677 522.159 51.4267 531.228 66.8068C560.954 117.181 578.429 146.733 604.136 162.658C629.844 178.584 663.814 180.904 726.565 176.773C746.688 176.773 761.617 187.502 769.472 202.207C777.132 216.547 778.066 234.667 770.53 250.305C744.489 302.081 727.089 333.068 724.921 363.709C722.754 394.35 735.809 424.676 770.72 475.15V475.154V475.168C778.926 494.084 777.035 512.678 768.543 526.683C760.05 540.686 744.954 550.1 726.754 550.667C669.891 551.013 636.574 551.649 610.708 565.909C584.842 580.17 566.396 608.07 539.296 662.988V662.992V662.999C530.228 677.781 514.06 687.042 496.711 687.238V687.234C479.164 687.435 462.803 678.765 453.338 663.979C421.315 614.393 403.172 583.269 377.458 565.625C351.743 547.982 318.433 543.793 256.031 548.101C237.183 545.68 222.766 535.851 214.589 522.813C205.582 508.451 204.145 490.192 212.662 473.584C239.167 423.68 255.239 394.037 256.21 364.34C257.18 334.642 243.054 304.855 209.129 254.648V254.644V254.64C201.014 236.067 202.801 217.76 211.07 203.861C219.339 189.962 234.091 180.472 251.906 179.53C309.926 177.708 344.871 177.688 371.801 164.105C398.731 150.521 417.679 123.364 443.7 67.2159V67.2091V67.2055C452.768 51.63 469.525 41.9703 487.465 41.9703V41.9677Z" stroke="black" stroke-width="3.589"/>
<path fill-rule="evenodd" clip-rule="evenodd" d="M487.382 58.6859C559.602 181.276 599.957 222.56 754.783 210.325C691.838 335.473 667.863 392.203 755.894 516.68C617.074 517.812 561.947 533.686 496.68 670.523C419.637 550.595 382.783 501.747 228.392 514.027C292.963 392.454 309.589 336.819 223.965 213.42C364.855 208.989 424.293 199.117 487.382 58.6859Z" fill="url(#paint10_linear_104_2)"/>
<path fill-rule="evenodd" clip-rule="evenodd" d="M214.589 522.811L179.249 542.572C189.211 559.61 207.14 570.24 226.838 570.905C367.237 561.212 376.825 589.744 448.866 701.294C459.493 717.898 477.007 727.634 496.712 727.409V687.232C479.165 687.433 462.803 678.763 453.338 663.978C421.314 614.391 403.172 583.267 377.457 565.623C351.742 547.98 318.433 543.791 256.031 548.099C237.183 545.678 222.766 535.849 214.589 522.811V522.811ZM496.712 687.232C498.88 687.205 501.029 687.043 503.15 686.742C501.029 687.043 498.88 687.208 496.712 687.232ZM526.411 677.107C524.716 678.375 522.944 679.537 521.108 680.584C522.944 679.537 524.716 678.375 526.411 677.107Z" fill="url(#paint11_linear_104_2)"/>
<path fill-rule="evenodd" clip-rule="evenodd" d="M487.16 1.7962C467.016 1.7962 448.204 12.6443 438.022 30.1332C379.479 156.459 352.718 152.427 222.194 156.526C202.27 157.192 184.339 168.037 174.602 185.081L211.07 203.86C219.339 189.961 234.091 180.47 251.905 179.529C309.925 177.707 344.87 177.687 371.8 164.104C398.731 150.52 417.679 123.363 443.7 67.2147V67.2079V67.2043C452.768 51.6287 469.524 41.9691 487.465 41.9691L487.16 1.7962Z" fill="url(#paint12_linear_104_2)"/>
<path fill-rule="evenodd" clip-rule="evenodd" d="M174.601 185.081C164.639 202.349 164.421 223.596 174.163 240.864C250.49 353.824 237.772 374.964 178.145 487.23C168.848 504.499 169.292 525.523 179.249 542.572L214.589 522.811C205.581 508.449 204.145 490.19 212.661 473.582C239.166 423.678 255.239 394.035 256.209 364.338C257.179 334.641 243.053 304.853 209.128 254.646V254.642V254.638C201.013 236.065 202.801 217.758 211.07 203.859L174.601 185.081Z" fill="url(#paint13_linear_104_2)"/>
<path fill-rule="evenodd" clip-rule="evenodd" d="M496.712 727.409C516.191 727.189 535.201 716.785 545.383 700.187C606.354 576.632 628.41 574.57 756.335 573.79C776.484 573.565 795.073 562.721 805.26 545.453L768.543 526.677C760.05 540.682 744.955 550.098 726.754 550.665C669.89 551.011 636.573 551.647 610.707 565.907C584.842 580.168 566.396 608.068 539.295 662.986V662.99V662.994C530.227 677.776 514.06 687.038 496.712 687.234V727.409Z" fill="url(#paint14_linear_104_2)"/>
<path fill-rule="evenodd" clip-rule="evenodd" d="M803.483 181.099L769.471 202.209C777.131 216.548 778.065 234.668 770.53 250.307C744.488 302.083 727.088 333.07 724.921 363.711C722.753 394.351 735.808 424.677 770.719 475.152V475.156V475.163C781.603 494.015 777.036 512.673 768.543 526.678L805.26 545.453C815.217 527.97 815.44 506.503 805.698 489.014C727.152 375.452 746.898 352.472 805.481 235.997C814.333 218.513 813.451 197.703 803.483 181.1L803.483 181.099Z" fill="url(#paint15_linear_104_2)"/>
<path fill-rule="evenodd" clip-rule="evenodd" d="M487.16 1.7962L487.465 41.9688C505.405 41.9688 522.158 51.4279 531.227 66.8079C560.953 117.182 578.428 146.734 604.135 162.659C629.843 178.585 663.813 180.906 726.565 176.774C746.688 176.774 761.616 187.503 769.471 202.209L803.483 181.099C793.526 164.275 775.593 153.873 756.114 153.428C614.936 162.724 603.177 143.013 536.302 29.6879C526.12 12.4192 507.304 1.7962 487.16 1.7962H487.16Z" fill="url(#paint16_linear_104_2)"/>
<path fill-rule="evenodd" clip-rule="evenodd" d="M487.469 41.9711C469.528 41.9711 452.772 51.6308 443.704 67.2063V67.2099V67.2167C417.683 123.365 398.735 150.522 371.805 164.106C344.874 177.689 309.929 177.709 251.909 179.531C234.095 180.472 219.343 189.963 211.074 203.862C202.805 217.76 201.018 236.068 209.133 254.64V254.644V254.648C243.058 304.856 257.184 334.643 256.214 364.341C255.243 394.038 239.17 423.681 212.665 473.585C204.149 490.193 205.586 508.452 214.593 522.814C222.77 535.852 237.187 545.681 256.035 548.102C318.437 543.794 351.747 547.982 377.462 565.626C403.176 583.27 421.318 614.394 453.342 663.98C462.807 678.766 479.168 687.436 496.715 687.235C514.064 687.039 530.231 677.778 539.299 662.995V662.991V662.987C566.4 608.07 584.846 580.169 610.712 565.909C636.577 551.649 669.895 551.013 726.758 550.666C744.959 550.1 760.054 540.684 768.547 526.679C777.04 512.674 778.93 494.081 770.723 475.164V475.157V475.153C735.812 424.679 722.758 394.353 724.925 363.712C727.093 333.071 744.493 302.084 770.534 250.308C778.07 234.669 777.135 216.55 769.476 202.21C761.621 187.505 746.693 176.775 726.569 176.775C663.818 180.907 629.847 178.586 604.14 162.661C578.433 146.736 560.958 117.184 531.231 66.8096C522.163 51.4297 505.41 41.9705 487.469 41.9705V41.9711ZM487.381 58.6859C559.601 181.276 599.957 222.56 754.783 210.325C691.838 335.473 667.862 392.203 755.894 516.68C617.074 517.812 561.946 533.686 496.68 670.523C419.636 550.595 382.783 501.747 228.391 514.027C292.963 392.454 309.588 336.819 223.965 213.42C364.855 208.989 424.293 199.117 487.381 58.6859H487.381Z" stroke="black" stroke-width="1.7945"/>
<path fill-rule="evenodd" clip-rule="evenodd" d="M496.712 687.235C514.06 687.039 530.231 677.777 539.3 662.995V662.991V662.987C566.4 608.069 584.846 580.169 610.711 565.909C636.577 551.648 669.895 551.012 726.758 550.666C744.959 550.099 760.054 540.683 768.547 526.678L755.894 516.679C617.074 517.812 561.978 533.685 496.712 670.522" fill="url(#paint17_linear_104_2)"/>
<path fill-rule="evenodd" clip-rule="evenodd" d="M228.392 514.027C292.963 392.454 309.589 336.819 223.965 213.42L211.074 203.862C202.805 217.761 201.018 236.068 209.132 254.641V254.645V254.649C243.057 304.856 257.184 334.644 256.214 364.341C255.243 394.039 239.17 423.681 212.665 473.585C204.149 490.193 205.586 508.452 214.593 522.814" fill="url(#paint18_linear_104_2)"/>
<path fill-rule="evenodd" clip-rule="evenodd" d="M487.469 41.9711C469.528 41.9711 452.772 51.6307 443.704 67.2063V67.2099V67.2167C417.683 123.365 398.735 150.522 371.804 164.106C344.874 177.689 309.929 177.709 251.909 179.531C234.095 180.472 219.343 189.963 211.074 203.862L223.965 213.419C373.128 214.263 432.194 203.857 487.382 58.6855" fill="url(#paint19_linear_104_2)"/>
<path fill-rule="evenodd" clip-rule="evenodd" d="M754.783 210.325C691.838 335.474 667.862 392.203 755.894 516.68L768.547 526.679C777.04 512.675 778.93 494.081 770.723 475.165V475.158V475.154C735.812 424.679 722.758 394.353 724.925 363.712C727.093 333.071 744.493 302.084 770.534 250.308C778.069 234.67 777.135 216.55 769.476 202.211" fill="url(#paint20_linear_104_2)"/>
<path fill-rule="evenodd" clip-rule="evenodd" d="M487.382 58.6861C554.423 182.233 582.003 224.617 754.783 210.325L769.476 202.211C761.621 187.506 746.693 176.776 726.569 176.776C663.818 180.908 629.847 178.587 604.14 162.662C578.433 146.736 560.958 117.184 531.231 66.8102C522.163 51.4302 505.41 41.9711 487.469 41.9711" fill="url(#paint21_linear_104_2)"/>
<path fill-rule="evenodd" clip-rule="evenodd" d="M496.712 670.523C419.668 550.595 382.783 501.747 228.392 514.027L214.593 522.814C222.77 535.852 237.187 545.68 256.035 548.101C318.437 543.793 351.747 547.982 377.462 565.626C403.176 583.269 421.318 614.393 453.342 663.98C462.807 678.765 479.165 687.435 496.712 687.235" fill="url(#paint22_linear_104_2)"/>
<path d="M449.306 555.795C449.306 555.795 449.698 555.599 450.286 555.403C451.07 555.011 452.049 554.62 453.421 553.836C456.36 552.464 460.475 550.309 465.57 547.369C470.861 544.43 476.935 540.511 483.99 535.808C490.848 531.105 498.49 525.423 506.132 518.564C513.97 511.706 521.809 503.868 529.451 495.05C536.897 486.036 544.147 475.846 550.026 464.677C555.905 453.312 560.607 440.967 563.547 428.034C563.939 426.466 564.33 424.703 564.526 423.135L565.31 418.236C565.898 414.905 566.094 411.574 566.486 408.243L566.682 405.695V405.107C566.682 405.107 566.682 404.911 566.682 405.107V404.911V404.519V403.148L566.878 397.857C567.074 394.33 566.878 390.998 566.878 387.471C566.682 373.754 565.31 359.842 563.351 346.321C561.391 332.8 558.452 319.476 555.317 306.739C548.85 281.265 540.816 258.142 533.174 238.547C525.532 218.952 518.086 202.884 512.795 191.91C510.052 186.424 507.896 182.113 506.329 179.173C504.761 176.234 503.977 174.666 503.977 174.666L509.268 171.727C509.268 171.727 510.052 173.295 511.815 176.234C513.383 179.173 515.734 183.484 518.478 188.971C524.16 199.944 531.802 216.013 540.033 235.608C548.262 255.203 556.884 278.717 563.939 304.387C570.993 330.057 576.48 358.274 577.459 387.079C577.459 390.606 577.655 394.526 577.655 397.857V403.148V404.519V404.911V405.303V405.891L577.459 408.635C577.263 412.358 577.067 415.885 576.48 419.412L575.696 424.703C575.304 426.466 574.912 428.23 574.716 429.994C571.777 444.102 567.074 457.623 560.803 469.968C554.533 482.117 547.087 493.286 539.249 503.084C531.41 512.882 523.18 521.308 515.146 528.558C507.112 535.808 499.274 542.079 492.024 547.173C484.774 552.268 478.307 556.383 472.821 559.714C467.334 563.046 463.023 565.397 459.888 566.965C458.32 567.748 457.144 568.336 456.36 568.728C455.577 569.12 454.989 569.316 454.989 569.316L454.401 568.924C450.482 566.377 448.326 561.086 449.306 555.795H449.306Z" fill="url(#paint23_linear_104_2)" stroke="black" stroke-width="1.01735" stroke-miterlimit="10" stroke-linejoin="round"/>
<path d="M459.692 492.326V625.946H490.26H521.025V492.326H459.692Z" fill="#CA9829" stroke="black" stroke-width="0.89725" stroke-miterlimit="10"/>
<path d="M520.568 529.298L460.214 551.833L461.259 555.599L520.568 533.413V529.298Z" fill="#6B4308"/>
<path d="M520.045 509.746L459.888 532.281V536.396L520.045 513.861V509.746Z" fill="#6B4308"/>
<path d="M417.367 95.8939C417.367 95.8939 502.442 115.06 506.123 191.299Z" fill="url(#paint24_linear_104_2)"/>
<path d="M417.367 95.8939C417.367 95.8939 502.442 115.06 506.123 191.299" stroke="black" stroke-width="1.01735" stroke-miterlimit="10"/>
<path d="M506.123 191.299C506.123 191.372 506.123 191.445 506.141 191.519C505.945 191.323 452.058 203.08 417.374 95.8939" fill="url(#paint25_linear_104_2)"/>
<path d="M506.123 191.299C506.123 191.372 506.123 191.445 506.141 191.519C505.945 191.323 452.058 203.08 417.374 95.8939" stroke="black" stroke-width="1.01735" stroke-miterlimit="10"/>
<path d="M417.367 95.8939C451.28 130.578 474.705 161.734 501.822 187.992L506.133 191.323" stroke="#231F20" stroke-width="1.01735" stroke-miterlimit="10"/>
<path d="M472.037 94.1302L490.26 44.4962V485.975H459.497V377.478V165.849C459.497 141.355 463.808 117.253 472.038 94.1302H472.037Z" fill="url(#paint26_linear_104_2)"/>
<path d="M508.484 94.1302L490.26 44.4962V485.975H521.024V377.478V165.849C521.024 141.355 516.713 117.253 508.483 94.1302H508.484Z" fill="url(#paint27_linear_104_2)"/>
<path d="M520.587 605.852L459.496 628.494V632.805L520.587 610.163V605.852Z" fill="#6B4308"/>
<path d="M530.431 646.326H450.09C446.367 646.326 443.232 643.19 443.232 639.467V628.298C443.232 624.575 446.367 621.44 450.09 621.44H530.431C534.154 621.44 537.289 624.575 537.289 628.298V639.467C537.289 643.19 534.154 646.326 530.431 646.326V646.326Z" fill="url(#paint28_linear_104_2)" stroke="url(#paint29_linear_104_2)" stroke-width="2.37383" stroke-miterlimit="10"/>
<path d="M520.587 586.257L460.14 608.88V613.191L520.587 590.568V586.257Z" fill="#6B4308"/>
<path d="M520.585 567.202L460.083 589.695V594.006L520.585 571.513V567.202Z" fill="#6B4308"/>
<path d="M520.599 548.424L459.96 571.071V575.186L520.599 552.539V548.424Z" fill="#6B4308"/>
<path d="M490.26 473.108V47.0098" stroke="black" stroke-width="0.89725" stroke-miterlimit="10" stroke-linecap="round" stroke-linejoin="round"/>
<path d="M582.993 398.477C582.335 398.668 581.672 398.854 581 399.033C581 399.033 579.049 323.297 641.968 281.702" fill="url(#paint30_linear_104_2)"/>
<path d="M582.993 398.477C582.335 398.668 581.672 398.854 581 399.033C581 399.033 579.049 323.297 641.968 281.702" stroke="black" stroke-width="1.01735" stroke-miterlimit="10"/>
<path d="M641.968 281.702C642.09 281.622 642.211 281.542 642.334 281.462C642.395 281.923 655.615 377.312 582.993 398.477" fill="url(#paint31_linear_104_2)"/>
<path d="M641.968 281.702C642.09 281.622 642.211 281.542 642.334 281.462C642.395 281.923 655.615 377.312 582.993 398.477" stroke="black" stroke-width="1.01735" stroke-miterlimit="10"/>
<path d="M574.52 131.165C574.52 131.165 618.609 243.838 556.884 283.029Z" fill="url(#paint32_linear_104_2)"/>
<path d="M574.52 131.165C574.52 131.165 618.609 243.838 556.884 283.029" stroke="black" stroke-width="1.01735" stroke-miterlimit="10"/>
<path d="M556.884 283.029C556.884 283.029 522.005 180.546 574.52 131.165Z" fill="url(#paint33_linear_104_2)"/>
<path d="M556.884 283.029C556.884 283.029 522.005 180.546 574.52 131.165" stroke="black" stroke-width="1.01735" stroke-miterlimit="10"/>
<path d="M659.611 407.962C658.622 418.657 647.98 496.75 531.033 513.274Z" fill="url(#paint34_linear_104_2)"/>
<path d="M659.611 407.962C658.622 418.657 647.98 496.75 531.033 513.274" stroke="black" stroke-width="1.01735" stroke-miterlimit="10"/>
<path d="M472.037 94.1302L490.26 44.4962V485.975H459.497V377.478V165.849C459.497 141.355 463.808 117.253 472.038 94.1302H472.037Z" fill="url(#paint35_linear_104_2)" stroke="black" stroke-width="1.01735" stroke-miterlimit="10"/>
<path d="M428.535 293.806C477.525 334.883 524.859 365.984 571.385 402.56" stroke="black" stroke-width="1.7945" stroke-miterlimit="10"/>
<path d="M508.484 94.1302L490.26 44.4962V485.975H521.024V377.478V165.849C521.024 141.355 516.713 117.253 508.483 94.1302H508.484Z" fill="url(#paint36_linear_104_2)" stroke="black" stroke-width="1.01735" stroke-miterlimit="10"/>
<path d="M428.536 293.806C428.536 293.806 539.249 305.172 571.189 400.209C571.189 400.196 570.804 400.233 570.071 400.284" fill="url(#paint37_linear_104_2)"/>
<path d="M428.536 293.806C428.536 293.806 539.249 305.172 571.189 400.209C571.189 400.196 570.804 400.233 570.071 400.284" stroke="black" stroke-width="1.01735" stroke-miterlimit="10"/>
<path d="M570.071 400.284C559.056 401.044 469.507 404.961 428.536 293.806Z" fill="url(#paint38_linear_104_2)"/>
<path d="M570.071 400.284C559.056 401.044 469.507 404.961 428.536 293.806" stroke="black" stroke-width="1.01735" stroke-miterlimit="10"/>
<path d="M428.536 293.806C481.404 334.559 525.23 365.954 571.386 402.56" stroke="black" stroke-width="1.01735" stroke-miterlimit="10"/>
<path d="M642.138 281.461C621.596 323.759 602.524 362.96 581 402.56" stroke="black" stroke-width="1.01735" stroke-miterlimit="10"/>
<path d="M549.046 284.989C507.009 258.012 465.187 232.177 430.886 195.634" stroke="black" stroke-width="3.91906" stroke-miterlimit="10"/>
<path d="M574.52 131.165C569.785 182.325 563.371 235.167 556.884 278.13V283.029" stroke="black" stroke-width="1.01735" stroke-miterlimit="10"/>
<path d="M545.616 283.744C535.792 286.343 458.955 296.465 427.729 192.114Z" fill="url(#paint39_linear_104_2)"/>
<path d="M545.616 283.744C535.792 286.343 458.955 296.465 427.729 192.114" stroke="black" stroke-width="1.01735" stroke-miterlimit="10"/>
<path d="M427.729 192.114C427.729 192.114 519.944 201.894 546.547 283.679C546.547 283.668 546.226 283.7 545.616 283.744" fill="url(#paint40_linear_104_2)"/>
<path d="M427.729 192.114C427.729 192.114 519.944 201.894 546.547 283.679C546.547 283.668 546.226 283.7 545.616 283.744" stroke="black" stroke-width="1.01735" stroke-miterlimit="10"/>
<path d="M427.729 192.114C472.475 227.462 509.003 254.227 546.71 285.703" stroke="black" stroke-width="1.01735" stroke-miterlimit="10"/>
<path d="M490.264 507.984V507.983L459.692 516.017L417.565 490.241H490.264" fill="url(#paint41_linear_104_2)"/>
<path d="M490.264 507.984V507.983L459.692 516.017L417.565 490.241H490.264" stroke="black" stroke-width="0.89725" stroke-miterlimit="10" stroke-linecap="round" stroke-linejoin="round"/>
<path d="M490.264 507.984V507.983L523.965 516.017L558.614 490.241H490.264" fill="url(#paint42_linear_104_2)"/>
<path d="M490.264 507.984V507.983L523.965 516.017L558.614 490.241H490.264" stroke="black" stroke-width="0.89725" stroke-miterlimit="10" stroke-linecap="round" stroke-linejoin="round"/>
<path d="M490.264 490.241H558.614L521.024 461.643L490.264 469.677V469.677" fill="url(#paint43_linear_104_2)"/>
<path d="M490.264 490.241H558.614L521.024 461.643L490.264 469.677V469.677" stroke="black" stroke-width="0.89725" stroke-miterlimit="10" stroke-linecap="round" stroke-linejoin="round"/>
<path d="M490.264 490.241H417.565L459.497 461.643L490.264 469.677V469.676" fill="url(#paint44_linear_104_2)"/>
<path d="M490.264 490.241H417.565L459.497 461.643L490.264 469.677V469.676" stroke="black" stroke-width="0.89725" stroke-miterlimit="10" stroke-linecap="round" stroke-linejoin="round"/>
<path d="M531.033 513.274C530.562 513.156 576.207 423.505 659.97 407.851C659.97 407.932 659.784 407.717 659.716 408.437" fill="url(#paint45_linear_104_2)"/>
<path d="M531.033 513.274C530.562 513.156 576.207 423.505 659.97 407.851C659.97 407.932 659.784 407.717 659.716 408.437" stroke="black" stroke-width="1.01735" stroke-miterlimit="10"/>
<path d="M449.306 555.795C449.306 555.795 449.698 555.599 450.286 555.403C451.07 555.011 452.049 554.62 453.421 553.836C456.36 552.464 460.475 550.309 465.57 547.369C470.861 544.43 476.935 540.511 483.99 535.808C490.848 531.105 498.49 525.423 506.132 518.564C513.97 511.706 521.809 503.868 529.451 495.05C536.897 486.036 544.147 475.846 550.026 464.677C555.905 453.312 560.607 440.967 563.547 428.034C563.939 426.466 564.33 424.703 564.526 423.135L565.31 418.236C565.898 414.905 566.094 411.574 566.486 408.243L566.682 405.695V405.107C566.682 405.107 566.682 404.911 566.682 405.107V404.911V404.519V403.147L566.878 397.857C567.074 394.33 566.878 390.998 566.878 387.471C566.682 373.754 565.31 359.842 563.351 346.321C561.391 332.8 556.598 312.901 553.463 300.164L562.085 297.813C569.139 323.482 576.48 358.274 577.459 387.079C577.459 390.606 577.655 394.525 577.655 397.857V403.147V404.519V404.911V405.303V405.891L577.459 408.635C577.263 412.358 577.067 415.885 576.48 419.412L575.696 424.703C575.304 426.466 574.912 428.23 574.716 429.994C571.777 444.102 567.074 457.623 560.803 469.968C554.533 482.117 547.087 493.286 539.249 503.084C531.41 512.882 523.18 521.308 515.146 528.558C507.112 535.808 499.274 542.079 492.024 547.173C484.774 552.268 478.307 556.383 472.821 559.714C467.334 563.046 463.023 565.397 459.888 566.965C458.32 567.748 457.144 568.336 456.36 568.728C455.577 569.12 454.989 569.316 454.989 569.316L454.401 568.924C450.482 566.377 448.326 561.086 449.306 555.795H449.306Z" fill="url(#paint46_linear_104_2)" stroke="black" stroke-width="1.01735" stroke-miterlimit="10" stroke-linejoin="round"/>
<path d="M531.033 513.274C531.033 513.274 622.659 438.863 659.791 408.273" stroke="black" stroke-width="1.01735" stroke-miterlimit="10"/>
<path d="M554.819 277.946C560.124 277.946 564.514 282.337 564.514 287.642C564.514 292.946 560.124 297.337 554.819 297.337C549.514 297.337 545.124 292.946 545.124 287.642C545.124 282.337 549.514 277.946 554.819 277.946ZM554.819 274.288C547.319 274.288 541.466 280.325 541.466 287.642C541.466 295.141 547.502 300.995 554.819 300.995C562.136 300.995 568.173 294.959 568.173 287.642C568.173 280.325 562.319 274.288 554.819 274.288V274.288Z" fill="black"/>
<path d="M554.925 300.077C548.066 300.077 542.58 294.59 542.58 287.732C542.58 280.874 548.066 275.387 554.925 275.387C561.783 275.387 567.27 280.874 567.27 287.732C567.27 294.59 561.783 300.077 554.925 300.077Z" fill="url(#paint47_radial_104_2)"/>
<path d="M571.189 392.009C576.923 392.009 581.732 396.634 581.732 402.553C581.732 408.287 577.108 413.096 571.189 413.096C565.455 413.096 560.645 408.472 560.645 402.553C560.83 396.634 565.455 392.009 571.189 392.009ZM571.189 388.31C563.42 388.31 556.946 394.599 556.946 402.553C556.946 410.322 563.235 416.796 571.189 416.796C578.958 416.796 585.432 410.507 585.432 402.553C585.432 394.599 579.143 388.31 571.189 388.31Z" fill="black"/>
<path d="M571.189 415.689C563.939 415.689 558.06 409.811 558.06 402.56C558.06 395.31 563.939 389.431 571.189 389.431C578.439 389.431 584.318 395.31 584.318 402.56C584.318 409.811 578.439 415.689 571.189 415.689V415.689Z" fill="url(#paint48_radial_104_2)"/>
<path d="M157.479 631.236C152.734 636.096 147.99 640.954 143.244 645.812C141.933 648.322 145.752 651.878 160.225 665.52C161.241 666.489 162.259 667.456 163.279 668.422C158.897 673.246 151.72 680.29 147.586 683.91C143.114 681.591 138.656 679.235 134.213 676.848C132.528 678.478 129.884 680.394 122.549 683.344C129.421 686.932 136.332 690.447 143.275 693.877C148.369 696.217 152.279 696.178 155.762 693.223C155.762 693.223 172.245 677.476 177.457 672.252C178.674 670.887 179.972 669.389 175.748 665.582C169.864 660.183 164.041 654.71 158.273 649.178C161.534 645.247 164.798 641.32 168.064 637.396C164.531 635.366 161.002 633.312 157.479 631.236ZM828.486 639.113C827.253 639.151 826.066 639.875 824.939 641.494C818.745 650.267 817.312 647.192 814.689 647.426C815.793 651.18 816.873 654.95 817.928 658.736C819.859 661.092 820.509 659.63 821.922 658.682C823.704 656.943 825.478 655.193 827.244 653.436C830.201 657.949 833.139 662.484 836.053 667.039C826.359 667.441 816.857 665.676 807.527 660.799C801.122 667.518 797.62 668.041 795.246 666.639C796.504 670.371 797.736 674.119 798.941 677.883C800.329 680.398 805.871 676.633 808.932 673.125C820.75 680.143 831.673 678.06 843.115 677.832C836.185 685.56 829.069 693.159 821.76 700.596C822.492 704.832 823.184 709.086 823.836 713.359C836.401 700.757 848.38 687.684 859.809 674.303C858.114 670.768 856.401 667.247 854.674 663.74C848.735 665.422 842.936 666.663 837.045 666.996C838.99 663.207 840.896 659.412 842.766 655.611C837.878 647.613 832.89 638.979 828.486 639.113ZM182.561 676.314C181.708 678.324 181.905 681.243 182.133 684.188C182.384 686.428 182.644 688.672 182.914 690.916C179.62 689.599 176.328 688.258 173.039 686.896C166.473 691.666 160.294 697.631 155.508 703.045C151.41 707.178 154.807 710.511 158.824 713.994C161.485 716.298 164.162 718.588 166.854 720.863C170.574 719.617 174.284 718.352 177.979 717.066C174.762 714.386 171.565 711.683 168.391 708.959C173.396 704.194 178.389 699.418 183.371 694.631C185.313 710.159 187.719 725.778 190.705 741.475C194.913 741.015 199.104 740.521 203.279 739.994C204.088 736.887 203.334 733.5 202.562 730.123C201.621 726.005 200.721 721.891 199.859 717.781C203.605 719.634 207.359 721.453 211.121 723.236C214.304 720.016 217.477 716.79 220.645 713.557C222.558 711.103 225.774 707.213 222.166 704.396C220.819 703.243 219.476 702.086 218.137 700.922C215.436 698.783 216.249 696.358 216.072 694.291C212.385 695.832 208.68 697.351 204.959 698.848C204.38 702.811 207.529 704.695 209.887 707C206.486 710.284 203.078 713.562 199.66 716.832C197.672 707.286 195.893 697.762 194.293 688.264C193.303 680.989 194.407 679.2 195.152 676.689C190.967 676.598 186.77 676.472 182.561 676.314ZM783.064 688.021C781.242 688.079 779.213 689.01 776.834 691.168C773.533 694.358 770.196 697.502 766.824 700.602C763.847 702.575 760.928 705.987 757.693 701.781C758.848 706.139 759.96 710.517 761.027 714.914C763.97 716.676 772.186 709.714 781.072 700.6C786.963 707.867 792.832 715.151 798.68 722.453C792.691 727.874 786.585 733.175 780.357 738.338C780.642 742.699 780.875 747.077 781.053 751.473C794.134 740.701 806.656 729.348 818.65 717.555C817.927 713.609 817.17 709.68 816.379 705.766C814.088 708.013 811.779 710.245 809.451 712.459L789.375 691.383C787.409 689.319 785.408 687.948 783.064 688.021ZM239.619 711.723C235.054 713.128 230.456 714.49 225.83 715.811C225.697 717.358 226.474 720.62 229.605 722.889C234.117 726.236 238.666 729.525 243.252 732.752C246.617 734.906 246.12 736.609 244.543 738.771C236.801 748.856 229.028 758.92 221.225 768.963C225.843 768.07 231.045 768.903 235.814 770.748C242.855 761.041 249.874 751.321 256.871 741.586C260.74 735.767 261.576 733.078 252.68 726.902C248.875 724.261 245.097 721.575 241.342 718.846C239.429 717.455 237.903 716.337 239.619 711.723ZM748.277 717.143C747.468 717.119 746.616 717.389 745.73 718.086C744.31 719.101 742.886 720.108 741.457 721.105C738.776 723.167 736.642 721.773 734.633 721.416C735.235 725.338 735.795 729.275 736.312 733.227C739.965 734.802 742.552 732.248 745.336 730.551C747.675 734.641 749.997 738.74 752.305 742.85C742.572 742.421 732.973 741.683 723.539 740.613C716.431 739.578 714.944 737.959 712.82 736.568C711.656 740.495 710.424 744.422 709.119 748.35C710.78 749.75 713.579 750.411 716.438 751.035C718.63 751.436 720.833 751.819 723.045 752.184C720.893 754.96 718.699 757.717 716.459 760.455C719.117 768.085 722.964 775.693 726.729 781.826C729.462 786.933 733.764 784.581 738.371 781.615C741.414 779.653 744.434 777.656 747.426 775.629C747.28 771.698 747.09 767.781 746.855 763.877C743.372 766.305 739.854 768.688 736.301 771.023C733.133 764.923 729.938 758.838 726.715 752.77C742.079 755.153 757.892 756.696 774.021 757.48C774.649 753.267 775.217 749.063 775.727 744.871C772.891 743.36 769.401 743.303 765.926 743.25C761.686 743.187 757.467 743.069 753.273 742.893C756.003 739.725 758.683 736.528 761.316 733.305C758.957 729.452 756.585 725.606 754.201 721.77C752.756 719.938 750.706 717.215 748.277 717.143ZM274.824 735.979C271.019 737.382 267.185 738.75 263.324 740.082C262.714 742.796 264.298 745.092 269.193 748.393C264.348 758.343 259.787 770.093 257.861 779.709C255.795 790.03 270.636 795.641 281.195 800.092C290.285 803.989 304.405 809.444 308.387 805.246C317.154 797.598 325.698 789.764 334.002 781.736C334.273 781.474 334.543 781.21 334.814 780.947C335.54 780.088 335.836 779.032 335.707 777.926C335.46 775.824 333.687 773.549 330.393 772.02C325.94 769.703 319.79 766.917 317.604 764.625C315.048 766.723 312.472 768.804 309.877 770.867C312.897 772.422 315.934 773.946 318.986 775.438C321.341 776.588 320.862 778.735 319.363 780.391C313.512 785.887 307.555 791.297 301.496 796.623C291.852 793.321 282.285 789.73 272.799 785.879C277.813 785.735 282.8 785.523 287.76 785.238C293.917 779.046 299.983 772.784 305.955 766.453C309.142 763.112 307.739 760.862 305.18 759.482C303.128 758.187 301.085 756.876 299.053 755.551C296.541 754.075 295.504 751.407 296.852 749.5C293.693 751.754 290.508 753.984 287.299 756.191C287.123 757.393 287.089 758.076 292.654 761.223C294.3 762.153 294.149 763.525 292.945 764.703C285.723 771.535 278.372 778.267 270.9 784.9C268.095 782.866 269.159 779.69 270.102 776.576C273.951 766.329 277.901 756.128 281.945 745.973C279.498 744.264 277.064 742.534 274.645 740.785C273.99 740.372 272.784 737.79 274.824 735.979ZM675.096 765.236C673.231 765.273 670.872 765.875 667.836 767.291C659.491 770.89 651.01 774.179 642.42 777.17C639.552 778.057 636.798 778.626 635.623 775.225C634.848 779.728 633.999 784.239 633.08 788.752C634.858 790.701 638.836 790.676 643.119 789.086C652.075 785.902 660.916 782.404 669.615 778.58C670.98 777.957 672.271 778.549 672.633 779.391C677.56 790.273 681.75 801.594 685.246 813.422C688.755 809.846 692.181 806.221 695.521 802.553C692.462 794.717 689.639 787.847 687.102 781.908C685.121 777.273 683.278 773.118 681.574 769.4C681.044 768.35 680.359 767.337 679.396 766.572C678.332 765.727 676.96 765.2 675.096 765.236ZM372.809 775.865C370.526 782.264 368.243 788.661 365.957 795.059C365.808 797.698 370.652 799.795 389.422 805.279C390.747 805.675 392.075 806.064 393.404 806.445C391.731 812.778 388.648 822.222 386.613 827.367C381.481 827.337 376.327 827.207 371.158 826.979C370.374 829.133 368.801 832.103 363.352 837.859C371.44 838.206 379.496 838.319 387.498 838.195C393.287 837.948 396.79 836.057 398.449 831.82C398.449 831.82 405.393 810.175 407.441 803.109C407.857 801.315 408.26 799.427 402.93 798.105C395.455 796.179 388.034 794.007 380.674 791.609C381.9 786.658 383.138 781.709 384.389 776.764C380.543 776.528 376.682 776.228 372.809 775.865ZM348.732 776.316C345.54 778.962 342.305 781.575 339.029 784.154C338.808 786.519 342.102 788.552 345.525 789.707C347.74 790.614 347.491 791.53 347.098 792.506C344.558 798.42 342.013 804.331 339.461 810.24C343.822 810.636 348.176 810.964 352.516 811.223L359.717 791.811C360.585 789.471 361.215 786.234 358.498 784.406C356.208 783.354 353.926 782.281 351.656 781.188C348.106 779.208 349.261 777.856 348.732 776.316ZM620.705 786.328C619.11 786.362 617.179 786.686 614.836 787.391C612.384 788.05 609.926 788.689 607.463 789.305C601.054 790.91 594.592 792.367 588.084 793.705C585.093 794.212 582.249 794.431 581.521 790.908C580.138 795.282 578.698 799.653 577.209 804.021C578.741 806.172 582.714 806.637 587.184 805.613C595.001 803.938 602.77 802.094 610.479 800.043C611.976 799.645 613.472 799.24 614.965 798.826C616.409 798.404 617.601 799.175 617.838 800.061C621.148 811.539 623.67 823.351 625.451 835.553C629.399 832.527 633.281 829.449 637.092 826.318C633.767 811.819 630.733 800.335 628.17 791.469C627.268 788.743 625.492 786.227 620.705 786.328ZM652.611 792.52C643.049 798.911 641.586 798.404 642.727 805.176C643.846 811.799 645.379 818.988 649.178 827.824C652.629 824.702 656.015 821.538 659.332 818.334C655.777 810.384 654.388 801.167 652.611 792.52ZM548.717 796.959C546.887 801.167 545.016 805.371 543.115 809.57C544.254 812.334 549.175 811.957 555.488 810.285C560.1 822.768 564.818 835.221 569.66 847.639C573.337 845.114 576.992 842.563 580.617 839.979C575.901 828.292 571.307 816.567 566.822 804.809C565.505 802.263 564.385 798.984 559.521 799.891C557.718 800.227 555.912 800.557 554.104 800.881C548.811 800.845 548.987 798.517 548.717 796.959ZM513.234 801.863C511.364 805.171 509.431 808.463 507.438 811.738C508.243 814.808 512.569 816.111 520.092 815.328C520.564 824.141 521.004 832.956 521.41 841.773C515.651 842.754 510.258 843.46 506.807 843.377C504.772 847.641 502.662 851.888 500.475 856.117C509.137 855.117 517.967 854.215 528.711 851.367C530.537 849.346 532.332 847.312 534.098 845.266C532.838 832.177 531.751 822.291 530.637 808.934C529.87 807.057 529.341 805.352 524.896 805.398C522.631 805.673 520.363 805.925 518.092 806.154C514.952 805.684 513.975 804.426 513.234 801.863ZM452.979 802.086C450.368 805.821 447.677 809.526 444.908 813.197C445.661 815.723 449.243 817.419 453.781 817.818C463.204 818.78 472.673 819.351 482.158 819.535C483.656 819.535 484.577 820.623 484.553 821.539C484.459 833.485 483.515 845.52 481.707 857.723C486.427 855.951 491.081 854.095 495.666 852.154C496.542 837.329 496.83 825.409 496.838 816.205C496.696 812.364 494.962 808.505 485.273 808.541C476.226 808.309 467.2 807.713 458.23 806.752C455.282 806.33 452.578 805.662 452.979 802.086ZM596.156 810.268C585.836 815.305 584.451 814.686 584.734 821.518C585.017 828.246 585.656 835.528 588.311 844.789C592.034 842.142 595.727 839.46 599.381 836.74C596.911 828.355 596.754 819.108 596.156 810.268ZM460.881 824.979C449.498 826.689 448.407 825.552 446.506 832.172C444.659 838.616 442.918 845.784 442.537 855.381C447.057 854.063 451.523 852.666 455.932 851.189C456.108 842.507 458.81 833.535 460.881 824.979ZM564.082 834.539C562.979 834.887 559.875 835.92 543.762 838.732C543.479 838.781 543.193 838.831 542.902 838.881C540.978 843.068 538.97 847.241 536.883 851.398C539.789 850.989 542.701 850.612 545.598 850.119C550.333 849.316 555.088 848.228 559.797 846.084C561.25 842.239 562.679 838.391 564.082 834.539Z" fill="#C38C1D"/>
</g>
<defs>
<linearGradient id="paint0_linear_104_2" x1="965.848" y1="496.934" x2="921.28" y2="560.03" gradientUnits="userSpaceOnUse">
<stop stop-color="#19120B"/>
<stop offset="1" stop-color="#362C1A"/>
</linearGradient>
<linearGradient id="paint1_linear_104_2" x1="950.825" y1="493.429" x2="908.331" y2="546.286" gradientUnits="userSpaceOnUse">
<stop stop-color="#80540B"/>
<stop offset="0.5" stop-color="#945E09"/>
<stop offset="0.75" stop-color="#C8A45F"/>
<stop offset="1" stop-color="#926611"/>
</linearGradient>
<linearGradient id="paint2_linear_104_2" x1="993.871" y1="545.687" x2="859.668" y2="727.138" gradientUnits="userSpaceOnUse">
<stop stop-color="#2B2315"/>
<stop offset="1" stop-color="#504328"/>
</linearGradient>
<linearGradient id="paint3_linear_104_2" x1="958.036" y1="452.028" x2="845.22" y2="673.946" gradientUnits="userSpaceOnUse">
<stop stop-color="white"/>
<stop offset="0.5" stop-color="#945E09"/>
<stop offset="0.75" stop-color="#C8A45F"/>
<stop offset="1" stop-color="#926611"/>
</linearGradient>
<linearGradient id="paint4_linear_104_2" x1="5.2901" y1="454.374" x2="52.2485" y2="547.953" gradientUnits="userSpaceOnUse">
<stop stop-color="#19120B"/>
<stop offset="1" stop-color="#2B2315"/>
</linearGradient>
<linearGradient id="paint5_linear_104_2" x1="29.8759" y1="493.903" x2="72.3701" y2="546.76" gradientUnits="userSpaceOnUse">
<stop stop-color="#80540B"/>
<stop offset="0.5" stop-color="#945E09"/>
<stop offset="0.75" stop-color="#C8A45F"/>
<stop offset="1" stop-color="#926611"/>
</linearGradient>
<linearGradient id="paint6_linear_104_2" x1="29.0291" y1="566.343" x2="92.9139" y2="687.664" gradientUnits="userSpaceOnUse">
<stop stop-color="#2B2315"/>
<stop offset="1" stop-color="#504328"/>
</linearGradient>
<linearGradient id="paint7_linear_104_2" x1="22.6645" y1="452.502" x2="135.481" y2="674.42" gradientUnits="userSpaceOnUse">
<stop stop-color="white"/>
<stop offset="0.5" stop-color="#945E09"/>
<stop offset="0.75" stop-color="#C8A45F"/>
<stop offset="1" stop-color="#926611"/>
</linearGradient>
<radialGradient id="paint8_radial_104_2" cx="0" cy="0" r="1" gradientUnits="userSpaceOnUse" gradientTransform="translate(473.507 858.322) rotate(-52.0854) scale(427.041 513.483)">
<stop stop-color="#372C17"/>
<stop offset="1" stop-color="#504328"/>
</radialGradient>
<linearGradient id="paint9_linear_104_2" x1="144.379" y1="827.735" x2="657.001" y2="586.83" gradientUnits="userSpaceOnUse">
<stop stop-color="#80540B"/>
<stop offset="0.5" stop-color="#945E09"/>
<stop offset="0.75" stop-color="#C8A45F"/>
<stop offset="1" stop-color="#926611"/>
</linearGradient>
<linearGradient id="paint10_linear_104_2" x1="429.837" y1="183.572" x2="328.691" y2="446.552" gradientUnits="userSpaceOnUse">
<stop stop-color="#372C17"/>
<stop offset="1" stop-color="#504328"/>
</linearGradient>
<linearGradient id="paint11_linear_104_2" x1="179.249" y1="522.811" x2="526.412" y2="522.811" gradientUnits="userSpaceOnUse">
<stop stop-color="white"/>
<stop offset="0.5" stop-color="#945E09"/>
<stop offset="0.75" stop-color="#C8A45F"/>
<stop offset="1" stop-color="#926611"/>
</linearGradient>
<linearGradient id="paint12_linear_104_2" x1="215.986" y1="176.347" x2="420.315" y2="66.0776" gradientUnits="userSpaceOnUse">
<stop stop-color="#FFF1CC"/>
<stop offset="0.5" stop-color="#FFFEFC"/>
<stop offset="1" stop-color="#FFEAAE"/>
</linearGradient>
<linearGradient id="paint13_linear_104_2" x1="167.381" y1="206.836" x2="234.321" y2="541.202" gradientUnits="userSpaceOnUse">
<stop stop-color="#D3AC4B"/>
<stop offset="0.5" stop-color="#E5B124"/>
<stop offset="1" stop-color="#DFD3B6"/>
</linearGradient>
<linearGradient id="paint14_linear_104_2" x1="566.29" y1="660.054" x2="768.78" y2="545.453" gradientUnits="userSpaceOnUse">
<stop stop-color="#A36A10"/>
<stop offset="1" stop-color="#5A3502"/>
</linearGradient>
<linearGradient id="paint15_linear_104_2" x1="774.961" y1="218.318" x2="779.882" y2="448.851" gradientUnits="userSpaceOnUse">
<stop stop-color="#FFEEB8"/>
<stop offset="0.5" stop-color="#955D09"/>
<stop offset="1" stop-color="#8C6308"/>
</linearGradient>
<linearGradient id="paint16_linear_104_2" x1="543.669" y1="42.1562" x2="769.476" y2="160.453" gradientUnits="userSpaceOnUse">
<stop stop-color="#E0B03E"/>
<stop offset="1" stop-color="#FFFDF5"/>
</linearGradient>
<linearGradient id="paint17_linear_104_2" x1="531.834" y1="607.25" x2="685.664" y2="526.677" gradientUnits="userSpaceOnUse">
<stop stop-color="#A8802F"/>
<stop offset="1" stop-color="#EFD494"/>
</linearGradient>
<linearGradient id="paint18_linear_104_2" x1="285.312" y1="154.181" x2="211.624" y2="542.572" gradientUnits="userSpaceOnUse">
<stop stop-color="#DBB244"/>
<stop offset="0.5" stop-color="#CA921F"/>
<stop offset="1" stop-color="#633B03"/>
</linearGradient>
<linearGradient id="paint19_linear_104_2" x1="211.074" y1="41.971" x2="487.469" y2="41.971" gradientUnits="userSpaceOnUse">
<stop stop-color="#80540B"/>
<stop offset="0.5" stop-color="#945E09"/>
<stop offset="0.75" stop-color="#C8A45F"/>
<stop offset="1" stop-color="#926611"/>
</linearGradient>
<linearGradient id="paint20_linear_104_2" x1="754.605" y1="210.68" x2="740.5" y2="461.001" gradientUnits="userSpaceOnUse">
<stop stop-color="#FFEEB8"/>
<stop offset="0.5" stop-color="#EBC86A"/>
<stop offset="1" stop-color="#7D5506"/>
</linearGradient>
<linearGradient id="paint21_linear_104_2" x1="510.458" y1="94.1302" x2="678.402" y2="178.567" gradientUnits="userSpaceOnUse">
<stop stop-color="#A88337"/>
<stop offset="0.5" stop-color="#BB9E64"/>
<stop offset="1" stop-color="#A8802F"/>
</linearGradient>
<linearGradient id="paint22_linear_104_2" x1="234.321" y1="541.202" x2="497.257" y2="712.771" gradientUnits="userSpaceOnUse">
<stop stop-color="#5A3502"/>
<stop offset="0.5" stop-color="#AA7C17"/>
<stop offset="1" stop-color="#A66F11"/>
</linearGradient>
<linearGradient id="paint23_linear_104_2" x1="525.763" y1="117.041" x2="578.382" y2="332.115" gradientUnits="userSpaceOnUse">
<stop stop-color="#4C2E05"/>
<stop offset="1" stop-color="#DFAF3D"/>
</linearGradient>
<linearGradient id="paint24_linear_104_2" x1="424.832" y1="107.931" x2="507.019" y2="143.18" gradientUnits="userSpaceOnUse">
<stop stop-color="#EBC059"/>
<stop offset="1" stop-color="#90600D"/>
</linearGradient>
<linearGradient id="paint25_linear_104_2" x1="416.513" y1="144.705" x2="495.898" y2="187.617" gradientUnits="userSpaceOnUse">
<stop stop-color="#B2801B"/>
<stop offset="1" stop-color="#7F5109"/>
</linearGradient>
<linearGradient id="paint26_linear_104_2" x1="473.685" y1="403.899" x2="474.761" y2="164.154" gradientUnits="userSpaceOnUse">
<stop stop-color="#DCAC39"/>
<stop offset="0.658867" stop-color="white"/>
<stop offset="1" stop-color="#EFD295"/>
</linearGradient>
<linearGradient id="paint27_linear_104_2" x1="508.975" y1="143.095" x2="499.38" y2="412.19" gradientUnits="userSpaceOnUse">
<stop stop-color="#D5A331"/>
<stop offset="1" stop-color="#8A5B0C"/>
</linearGradient>
<linearGradient id="paint28_linear_104_2" x1="494.345" y1="611.558" x2="533.171" y2="663.667" gradientUnits="userSpaceOnUse">
<stop stop-color="#CA9829"/>
<stop offset="1" stop-color="#724B08"/>
</linearGradient>
<linearGradient id="paint29_linear_104_2" x1="439.558" y1="567.232" x2="507.898" y2="661.286" gradientUnits="userSpaceOnUse">
<stop stop-color="#5E3600"/>
<stop offset="1" stop-color="#4B2A01"/>
</linearGradient>
<linearGradient id="paint30_linear_104_2" x1="585.643" y1="364.071" x2="639.854" y2="263.789" gradientUnits="userSpaceOnUse">
<stop stop-color="#F0CC73"/>
<stop offset="1" stop-color="#FEFCFA"/>
</linearGradient>
<linearGradient id="paint31_linear_104_2" x1="593.552" y1="415.855" x2="626.888" y2="323.544" gradientUnits="userSpaceOnUse">
<stop stop-color="#482901"/>
<stop offset="1" stop-color="#5E3600"/>
</linearGradient>
<linearGradient id="paint32_linear_104_2" x1="584.785" y1="166.826" x2="572.277" y2="278.198" gradientUnits="userSpaceOnUse">
<stop stop-color="#5E3600"/>
<stop offset="1" stop-color="#442701"/>
</linearGradient>
<linearGradient id="paint33_linear_104_2" x1="556.114" y1="157.006" x2="554.925" y2="228.92" gradientUnits="userSpaceOnUse">
<stop stop-color="#FAE7B6"/>
<stop offset="1" stop-color="#BB891F"/>
</linearGradient>
<linearGradient id="paint34_linear_104_2" x1="538.243" y1="555.934" x2="647.176" y2="427.467" gradientUnits="userSpaceOnUse">
<stop stop-color="#432601"/>
<stop offset="1" stop-color="#583200"/>
</linearGradient>
<linearGradient id="paint35_linear_104_2" x1="473.685" y1="403.899" x2="474.761" y2="164.154" gradientUnits="userSpaceOnUse">
<stop stop-color="#DCAC39"/>
<stop offset="0.658867" stop-color="white"/>
<stop offset="1" stop-color="#EFD295"/>
</linearGradient>
<linearGradient id="paint36_linear_104_2" x1="508.975" y1="143.095" x2="499.38" y2="412.19" gradientUnits="userSpaceOnUse">
<stop stop-color="#D5A331"/>
<stop offset="1" stop-color="#8A5B0C"/>
</linearGradient>
<linearGradient id="paint37_linear_104_2" x1="427.373" y1="270.95" x2="533.385" y2="365.932" gradientUnits="userSpaceOnUse">
<stop stop-color="#EBC059"/>
<stop offset="1" stop-color="#90600D"/>
</linearGradient>
<linearGradient id="paint38_linear_104_2" x1="459.497" y1="349.583" x2="560.02" y2="402.756" gradientUnits="userSpaceOnUse">
<stop stop-color="#815309"/>
<stop offset="1" stop-color="#3E2200"/>
</linearGradient>
<linearGradient id="paint39_linear_104_2" x1="453.517" y1="240.113" x2="538.417" y2="283.579" gradientUnits="userSpaceOnUse">
<stop stop-color="#815309"/>
<stop offset="1" stop-color="#3E2200"/>
</linearGradient>
<linearGradient id="paint40_linear_104_2" x1="483.977" y1="201.053" x2="548.855" y2="272.303" gradientUnits="userSpaceOnUse">
<stop stop-color="#EBC059"/>
<stop offset="1" stop-color="#90600D"/>
</linearGradient>
<linearGradient id="paint41_linear_104_2" x1="459.888" y1="523.071" x2="459.497" y2="475.212" gradientUnits="userSpaceOnUse">
<stop stop-color="#623B04"/>
<stop offset="0.5" stop-color="#D3A848"/>
<stop offset="1" stop-color="#ECECEC"/>
</linearGradient>
<linearGradient id="paint42_linear_104_2" x1="517.963" y1="516.914" x2="524.433" y2="488.891" gradientUnits="userSpaceOnUse">
<stop stop-color="#5D3703"/>
<stop offset="0.5" stop-color="#D3A848"/>
<stop offset="1" stop-color="#ECECEC"/>
</linearGradient>
<linearGradient id="paint43_linear_104_2" x1="356.371" y1="103.178" x2="419.86" y2="213.42" gradientUnits="userSpaceOnUse">
<stop stop-color="#A8751F"/>
<stop offset="1" stop-color="#A8863D"/>
</linearGradient>
<linearGradient id="paint44_linear_104_2" x1="459.692" y1="504.204" x2="459.497" y2="449.614" gradientUnits="userSpaceOnUse">
<stop stop-color="#5B3602"/>
<stop offset="0.5" stop-color="#D3A848"/>
<stop offset="1" stop-color="#ECECEC"/>
</linearGradient>
<linearGradient id="paint45_linear_104_2" x1="577.944" y1="467.504" x2="638.66" y2="414.539" gradientUnits="userSpaceOnUse">
<stop stop-color="#F0CC73"/>
<stop offset="1" stop-color="#FEFCFA"/>
</linearGradient>
<linearGradient id="paint46_linear_104_2" x1="613.121" y1="401.593" x2="452.709" y2="590.613" gradientUnits="userSpaceOnUse">
<stop stop-color="#815309"/>
<stop offset="1" stop-color="#623B04"/>
</linearGradient>
<radialGradient id="paint47_radial_104_2" cx="0" cy="0" r="1" gradientUnits="userSpaceOnUse" gradientTransform="translate(547.054 283.315) rotate(84.7355) scale(28.2077 30.3151)">
<stop stop-color="#E9BE56"/>
<stop offset="1" stop-color="#251400"/>
</radialGradient>
<radialGradient id="paint48_radial_104_2" cx="0" cy="0" r="1" gradientUnits="userSpaceOnUse" gradientTransform="translate(570.543 398.33) rotate(98.3329) scale(17.4345 22.339)">
<stop stop-color="#E9BE56"/>
<stop offset="1" stop-color="#251400"/>
</radialGradient>
<clipPath id="clip0_104_2">
<rect width="980.701" height="888.632" fill="white"/>
</clipPath>
</defs>
</svg>
